(module pad10mm (layer F.Cu) (tedit 57726491)
  (fp_text reference REF** (at -2.54 1.27) (layer F.SilkS)
    (effects (font (size 1 1) (thickness 0.15)))
  )
  (fp_text value pad10mm (at -1.27 -6.35) (layer F.Fab)
    (effects (font (size 1 1) (thickness 0.15)))
  )
  (fp_line (start -5.5 -7.5) (end 5.5 -7.5) (layer F.SilkS) (width 0.15))
  (fp_line (start 5.5 -7.5) (end 5.5 2.5) (layer F.SilkS) (width 0.15))
  (fp_line (start 5.5 2.5) (end -5.5 2.5) (layer F.SilkS) (width 0.15))
  (fp_line (start -5.5 2.5) (end -5.5 -7.5) (layer F.SilkS) (width 0.15))
  (pad 1 smd rect (at 0 -2.54) (size 10 9) (layers F.Cu F.Paste F.Mask))
)
