<?xml version="1.0" encoding="UTF-8" standalone="no"?>
<svg
   xmlns:dc="http://purl.org/dc/elements/1.1/"
   xmlns:cc="http://creativecommons.org/ns#"
   xmlns:rdf="http://www.w3.org/1999/02/22-rdf-syntax-ns#"
   xmlns:svg="http://www.w3.org/2000/svg"
   xmlns="http://www.w3.org/2000/svg"
   xmlns:sodipodi="http://sodipodi.sourceforge.net/DTD/sodipodi-0.dtd"
   xmlns:inkscape="http://www.inkscape.org/namespaces/inkscape"
   version="1.1"
   width="210mm"
   height="297mm"
   viewBox="0 0 82677.063 116929.14"
   id="svg8117"
   inkscape:version="0.91 r13725"
   sodipodi:docname="punched_card_busy_beaver_3.svg">
  <metadata
     id="metadata13709">
    <rdf:RDF>
      <cc:Work
         rdf:about="">
        <dc:format>image/svg+xml</dc:format>
        <dc:type
           rdf:resource="http://purl.org/dc/dcmitype/StillImage" />
        <dc:title>SVG Picture created as card_reader-brd.svg date 2016/07/01 15:53:34 </dc:title>
      </cc:Work>
    </rdf:RDF>
  </metadata>
  <defs
     id="defs13707" />
  <sodipodi:namedview
     pagecolor="#ffffff"
     bordercolor="#666666"
     borderopacity="1"
     objecttolerance="10"
     gridtolerance="10"
     guidetolerance="10"
     inkscape:pageopacity="0"
     inkscape:pageshadow="2"
     inkscape:window-width="1918"
     inkscape:window-height="1183"
     id="namedview13705"
     showgrid="false"
     showguides="false"
     inkscape:guide-bbox="true"
     fit-margin-top="0"
     fit-margin-left="0"
     fit-margin-right="0"
     fit-margin-bottom="0"
     units="mm"
     inkscape:zoom="0.95088118"
     inkscape:cx="207.97021"
     inkscape:cy="482.97622"
     inkscape:window-x="1600"
     inkscape:window-y="0"
     inkscape:window-maximized="0"
     inkscape:current-layer="svg8117">
    <sodipodi:guide
       position="2158.864,61315.755"
       orientation="1,0"
       id="guide13776" />
    <sodipodi:guide
       position="36629.77,60322.524"
       orientation="1,0"
       id="guide13778" />
    <sodipodi:guide
       position="22552.153,78406.811"
       orientation="1,0"
       id="guide4858" />
    <sodipodi:guide
       position="57169.124,79107.915"
       orientation="1,0"
       id="guide4860" />
  </sodipodi:namedview>
  <title
     id="title8119">SVG Picture created as card_reader-brd.svg date 2016/07/01 15:53:34 </title>
  <desc
     id="desc8121">Picture generated by PCBNEW </desc>
  <g
     style="fill:#000000;fill-opacity:1;stroke:#000000;stroke-linecap:round;stroke-linejoin:round;stroke-opacity:1"
     id="g8123"
     transform="translate(-13206.998,36291.944)" />
  <g
     style="fill:#000000;fill-opacity:0;stroke:#000000;stroke-width:-0.0003937;stroke-linecap:round;stroke-linejoin:round;stroke-opacity:1"
     id="g8125"
     transform="translate(-13206.998,36291.944)" />
  <g
     style="fill:#000000;fill-opacity:0;stroke:#000000;stroke-width:0;stroke-linecap:round;stroke-linejoin:round;stroke-opacity:1"
     id="g8181"
     transform="translate(-13206.998,36291.944)" />
  <g
     style="fill:#000000;fill-opacity:1;stroke:#000000;stroke-width:39.37009811;stroke-linecap:round;stroke-linejoin:round;stroke-opacity:1"
     id="g8461"
     transform="translate(-13206.998,36291.944)" />
  <g
     style="fill:#000000;fill-opacity:1;stroke:#000000;stroke-width:620;stroke-linecap:round;stroke-linejoin:round;stroke-opacity:1"
     id="g8471"
     transform="translate(-13206.998,36291.944)" />
  <g
     style="fill:#000000;fill-opacity:0;stroke:#000000;stroke-width:0;stroke-linecap:round;stroke-linejoin:round;stroke-opacity:1"
     id="g8521"
     transform="translate(-13206.998,36291.944)" />
  <g
     style="fill:#000000;fill-opacity:1;stroke:#000000;stroke-width:39.37009811;stroke-linecap:round;stroke-linejoin:round;stroke-opacity:1"
     id="g8575"
     transform="translate(-13206.998,36291.944)" />
  <g
     style="fill:#000000;fill-opacity:1;stroke:#000000;stroke-width:39.37009811;stroke-linecap:round;stroke-linejoin:round;stroke-opacity:1"
     id="g8581"
     transform="translate(-13206.998,36291.944)" />
  <g
     style="fill:#000000;fill-opacity:1;stroke:#000000;stroke-width:39.37009811;stroke-linecap:round;stroke-linejoin:round;stroke-opacity:1"
     id="g8587"
     transform="translate(-13206.998,36291.944)" />
  <g
     style="fill:#000000;fill-opacity:1;stroke:#000000;stroke-width:39.37009811;stroke-linecap:round;stroke-linejoin:round;stroke-opacity:1"
     id="g8593"
     transform="translate(-13206.998,36291.944)" />
  <g
     style="fill:#000000;fill-opacity:1;stroke:#000000;stroke-width:39.37009811;stroke-linecap:round;stroke-linejoin:round;stroke-opacity:1"
     id="g8599"
     transform="translate(-13206.998,36291.944)" />
  <g
     style="fill:#000000;fill-opacity:1;stroke:#000000;stroke-width:39.37009811;stroke-linecap:round;stroke-linejoin:round;stroke-opacity:1"
     id="g8605"
     transform="translate(-13206.998,36291.944)" />
  <g
     style="fill:#000000;fill-opacity:1;stroke:#000000;stroke-width:39.37009811;stroke-linecap:round;stroke-linejoin:round;stroke-opacity:1"
     id="g8611"
     transform="translate(-13206.998,36291.944)" />
  <g
     style="fill:#000000;fill-opacity:1;stroke:#000000;stroke-width:39.37009811;stroke-linecap:round;stroke-linejoin:round;stroke-opacity:1"
     id="g8617"
     transform="translate(-13206.998,36291.944)" />
  <g
     style="fill:#000000;fill-opacity:1;stroke:#000000;stroke-width:39.37009811;stroke-linecap:round;stroke-linejoin:round;stroke-opacity:1"
     id="g8623"
     transform="translate(-13206.998,36291.944)" />
  <g
     style="fill:#000000;fill-opacity:1;stroke:#000000;stroke-width:39.37009811;stroke-linecap:round;stroke-linejoin:round;stroke-opacity:1"
     id="g8629"
     transform="translate(-13206.998,36291.944)" />
  <g
     style="fill:#000000;fill-opacity:1;stroke:#000000;stroke-width:39.37009811;stroke-linecap:round;stroke-linejoin:round;stroke-opacity:1"
     id="g8635"
     transform="translate(-13206.998,36291.944)" />
  <g
     style="fill:#000000;fill-opacity:1;stroke:#000000;stroke-width:39.37009811;stroke-linecap:round;stroke-linejoin:round;stroke-opacity:1"
     id="g8641"
     transform="translate(-13206.998,36291.944)" />
  <g
     style="fill:#000000;fill-opacity:1;stroke:#000000;stroke-width:39.37009811;stroke-linecap:round;stroke-linejoin:round;stroke-opacity:1"
     id="g8647"
     transform="translate(-13206.998,36291.944)" />
  <g
     style="fill:#000000;fill-opacity:1;stroke:#000000;stroke-width:39.37009811;stroke-linecap:round;stroke-linejoin:round;stroke-opacity:1"
     id="g8653"
     transform="translate(-13206.998,36291.944)" />
  <g
     style="fill:#000000;fill-opacity:1;stroke:#000000;stroke-width:39.37009811;stroke-linecap:round;stroke-linejoin:round;stroke-opacity:1"
     id="g8659"
     transform="translate(-13206.998,36291.944)" />
  <g
     style="fill:#000000;fill-opacity:1;stroke:#000000;stroke-width:39.37009811;stroke-linecap:round;stroke-linejoin:round;stroke-opacity:1"
     id="g8665"
     transform="translate(-13206.998,36291.944)" />
  <g
     style="fill:#000000;fill-opacity:1;stroke:#000000;stroke-width:39.37009811;stroke-linecap:round;stroke-linejoin:round;stroke-opacity:1"
     id="g8671"
     transform="translate(-13206.998,36291.944)" />
  <g
     style="fill:#000000;fill-opacity:1;stroke:#000000;stroke-width:39.37009811;stroke-linecap:round;stroke-linejoin:round;stroke-opacity:1"
     id="g8677"
     transform="translate(-13206.998,36291.944)" />
  <g
     style="fill:#000000;fill-opacity:1;stroke:#000000;stroke-width:39.37009811;stroke-linecap:round;stroke-linejoin:round;stroke-opacity:1"
     id="g8683"
     transform="translate(-13206.998,36291.944)" />
  <g
     style="fill:#000000;fill-opacity:1;stroke:#000000;stroke-width:39.37009811;stroke-linecap:round;stroke-linejoin:round;stroke-opacity:1"
     id="g8689"
     transform="translate(-13206.998,36291.944)" />
  <g
     style="fill:#000000;fill-opacity:1;stroke:#000000;stroke-width:39.37009811;stroke-linecap:round;stroke-linejoin:round;stroke-opacity:1"
     id="g8695"
     transform="translate(-13206.998,36291.944)" />
  <g
     style="fill:#000000;fill-opacity:1;stroke:#000000;stroke-width:39.37009811;stroke-linecap:round;stroke-linejoin:round;stroke-opacity:1"
     id="g8701"
     transform="translate(-13206.998,36291.944)" />
  <g
     style="fill:#000000;fill-opacity:1;stroke:#000000;stroke-width:39.37009811;stroke-linecap:round;stroke-linejoin:round;stroke-opacity:1"
     id="g8707"
     transform="translate(-13206.998,36291.944)" />
  <g
     style="fill:#000000;fill-opacity:1;stroke:#000000;stroke-width:39.37009811;stroke-linecap:round;stroke-linejoin:round;stroke-opacity:1"
     id="g8713"
     transform="translate(-13206.998,36291.944)" />
  <g
     style="fill:#000000;fill-opacity:1;stroke:#000000;stroke-width:39.37009811;stroke-linecap:round;stroke-linejoin:round;stroke-opacity:1"
     id="g8721"
     transform="translate(-13206.998,36291.944)" />
  <g
     style="fill:#000000;fill-opacity:1;stroke:#000000;stroke-width:39.37009811;stroke-linecap:round;stroke-linejoin:round;stroke-opacity:1"
     id="g8727"
     transform="translate(-13206.998,36291.944)" />
  <g
     style="fill:#000000;fill-opacity:1;stroke:#000000;stroke-width:39.37009811;stroke-linecap:round;stroke-linejoin:round;stroke-opacity:1"
     id="g8733"
     transform="translate(-13206.998,36291.944)" />
  <g
     style="fill:#000000;fill-opacity:1;stroke:#000000;stroke-width:39.37009811;stroke-linecap:round;stroke-linejoin:round;stroke-opacity:1"
     id="g8739"
     transform="translate(-13206.998,36291.944)" />
  <g
     style="fill:#000000;fill-opacity:1;stroke:#000000;stroke-width:39.37009811;stroke-linecap:round;stroke-linejoin:round;stroke-opacity:1"
     id="g8745"
     transform="translate(-13206.998,36291.944)" />
  <g
     style="fill:#000000;fill-opacity:1;stroke:#000000;stroke-width:39.37009811;stroke-linecap:round;stroke-linejoin:round;stroke-opacity:1"
     id="g8753"
     transform="translate(-13206.998,36291.944)" />
  <g
     style="fill:#000000;fill-opacity:1;stroke:#000000;stroke-width:39.37009811;stroke-linecap:round;stroke-linejoin:round;stroke-opacity:1"
     id="g8759"
     transform="translate(-13206.998,36291.944)" />
  <g
     style="fill:#000000;fill-opacity:1;stroke:#000000;stroke-width:39.37009811;stroke-linecap:round;stroke-linejoin:round;stroke-opacity:1"
     id="g8765"
     transform="translate(-13206.998,36291.944)" />
  <g
     style="fill:#000000;fill-opacity:1;stroke:#000000;stroke-width:39.37009811;stroke-linecap:round;stroke-linejoin:round;stroke-opacity:1"
     id="g8771"
     transform="translate(-13206.998,36291.944)" />
  <g
     style="fill:#000000;fill-opacity:1;stroke:#000000;stroke-width:39.37009811;stroke-linecap:round;stroke-linejoin:round;stroke-opacity:1"
     id="g8777"
     transform="translate(-13206.998,36291.944)" />
  <g
     style="fill:#000000;fill-opacity:1;stroke:#000000;stroke-width:39.37009811;stroke-linecap:round;stroke-linejoin:round;stroke-opacity:1"
     id="g8785"
     transform="translate(-13206.998,36291.944)" />
  <g
     style="fill:#000000;fill-opacity:1;stroke:#000000;stroke-width:39.37009811;stroke-linecap:round;stroke-linejoin:round;stroke-opacity:1"
     id="g8793"
     transform="translate(-13206.998,36291.944)" />
  <g
     style="fill:#000000;fill-opacity:1;stroke:#000000;stroke-width:39.37009811;stroke-linecap:round;stroke-linejoin:round;stroke-opacity:1"
     id="g8847"
     transform="translate(-13206.998,36291.944)" />
  <g
     style="fill:#000000;fill-opacity:1;stroke:#000000;stroke-width:39.37009811;stroke-linecap:round;stroke-linejoin:round;stroke-opacity:1"
     id="g8853"
     transform="translate(-13206.998,36291.944)" />
  <g
     style="fill:#000000;fill-opacity:1;stroke:#000000;stroke-width:39.37009811;stroke-linecap:round;stroke-linejoin:round;stroke-opacity:1"
     id="g8859"
     transform="translate(-13206.998,36291.944)" />
  <g
     style="fill:#000000;fill-opacity:1;stroke:#000000;stroke-width:39.37009811;stroke-linecap:round;stroke-linejoin:round;stroke-opacity:1"
     id="g8865"
     transform="translate(-13206.998,36291.944)" />
  <g
     style="fill:#000000;fill-opacity:1;stroke:#000000;stroke-width:39.37009811;stroke-linecap:round;stroke-linejoin:round;stroke-opacity:1"
     id="g8871"
     transform="translate(-13206.998,36291.944)" />
  <g
     style="fill:#000000;fill-opacity:1;stroke:#000000;stroke-width:39.37009811;stroke-linecap:round;stroke-linejoin:round;stroke-opacity:1"
     id="g8877"
     transform="translate(-13206.998,36291.944)" />
  <g
     style="fill:#000000;fill-opacity:1;stroke:#000000;stroke-width:39.37009811;stroke-linecap:round;stroke-linejoin:round;stroke-opacity:1"
     id="g8883"
     transform="translate(-13206.998,36291.944)" />
  <g
     style="fill:#000000;fill-opacity:1;stroke:#000000;stroke-width:39.37009811;stroke-linecap:round;stroke-linejoin:round;stroke-opacity:1"
     id="g8889"
     transform="translate(-13206.998,36291.944)" />
  <g
     style="fill:#000000;fill-opacity:1;stroke:#000000;stroke-width:39.37009811;stroke-linecap:round;stroke-linejoin:round;stroke-opacity:1"
     id="g8895"
     transform="translate(-13206.998,36291.944)" />
  <g
     style="fill:#000000;fill-opacity:1;stroke:#000000;stroke-width:39.37009811;stroke-linecap:round;stroke-linejoin:round;stroke-opacity:1"
     id="g8901"
     transform="translate(-13206.998,36291.944)" />
  <g
     style="fill:#000000;fill-opacity:1;stroke:#000000;stroke-width:39.37009811;stroke-linecap:round;stroke-linejoin:round;stroke-opacity:1"
     id="g8907"
     transform="translate(-13206.998,36291.944)" />
  <g
     style="fill:#000000;fill-opacity:1;stroke:#000000;stroke-width:39.37009811;stroke-linecap:round;stroke-linejoin:round;stroke-opacity:1"
     id="g8913"
     transform="translate(-13206.998,36291.944)" />
  <g
     style="fill:#000000;fill-opacity:1;stroke:#000000;stroke-width:39.37009811;stroke-linecap:round;stroke-linejoin:round;stroke-opacity:1"
     id="g8919"
     transform="translate(-13206.998,36291.944)" />
  <g
     style="fill:#000000;fill-opacity:1;stroke:#000000;stroke-width:39.37009811;stroke-linecap:round;stroke-linejoin:round;stroke-opacity:1"
     id="g8925"
     transform="translate(-13206.998,36291.944)" />
  <g
     style="fill:#000000;fill-opacity:1;stroke:#000000;stroke-width:39.37009811;stroke-linecap:round;stroke-linejoin:round;stroke-opacity:1"
     id="g8931"
     transform="translate(-13206.998,36291.944)" />
  <g
     style="fill:#000000;fill-opacity:1;stroke:#000000;stroke-width:39.37009811;stroke-linecap:round;stroke-linejoin:round;stroke-opacity:1"
     id="g8937"
     transform="translate(-13206.998,36291.944)" />
  <g
     style="fill:#000000;fill-opacity:1;stroke:#000000;stroke-width:39.37009811;stroke-linecap:round;stroke-linejoin:round;stroke-opacity:1"
     id="g8943"
     transform="translate(-13206.998,36291.944)" />
  <g
     style="fill:#000000;fill-opacity:1;stroke:#000000;stroke-width:39.37009811;stroke-linecap:round;stroke-linejoin:round;stroke-opacity:1"
     id="g8949"
     transform="translate(-13206.998,36291.944)" />
  <g
     style="fill:#000000;fill-opacity:1;stroke:#000000;stroke-width:150;stroke-linecap:round;stroke-linejoin:round;stroke-opacity:1"
     id="g8951"
     transform="translate(-13206.998,36291.944)" />
  <g
     style="fill:#ffffff;fill-opacity:0;stroke:#ffffff;stroke-width:150;stroke-linecap:round;stroke-linejoin:round;stroke-opacity:1"
     id="g10055"
     transform="translate(-13206.998,36291.944)" />
  <g
     style="fill:#ffffff;fill-opacity:1;stroke:#ffffff;stroke-width:39.37009811;stroke-linecap:round;stroke-linejoin:round;stroke-opacity:1"
     id="g10061"
     transform="translate(-13206.998,36291.944)" />
  <g
     style="fill:#ffffff;fill-opacity:1;stroke:#ffffff;stroke-width:39.37009811;stroke-linecap:round;stroke-linejoin:round;stroke-opacity:1"
     id="g10067"
     transform="translate(-13206.998,36291.944)" />
  <g
     style="fill:#ffffff;fill-opacity:1;stroke:#ffffff;stroke-width:39.37009811;stroke-linecap:round;stroke-linejoin:round;stroke-opacity:1"
     id="g10073"
     transform="translate(-13206.998,36291.944)" />
  <g
     style="fill:#ffffff;fill-opacity:1;stroke:#ffffff;stroke-width:39.37009811;stroke-linecap:round;stroke-linejoin:round;stroke-opacity:1"
     id="g10079"
     transform="translate(-13206.998,36291.944)" />
  <g
     style="fill:#ffffff;fill-opacity:1;stroke:#ffffff;stroke-width:39.37009811;stroke-linecap:round;stroke-linejoin:round;stroke-opacity:1"
     id="g10085"
     transform="translate(-13206.998,36291.944)" />
  <g
     style="fill:#ffffff;fill-opacity:1;stroke:#ffffff;stroke-width:39.37009811;stroke-linecap:round;stroke-linejoin:round;stroke-opacity:1"
     id="g10091"
     transform="translate(-13206.998,36291.944)" />
  <g
     style="fill:#ffffff;fill-opacity:1;stroke:#ffffff;stroke-width:39.37009811;stroke-linecap:round;stroke-linejoin:round;stroke-opacity:1"
     id="g10097"
     transform="translate(-13206.998,36291.944)" />
  <g
     style="fill:#ffffff;fill-opacity:1;stroke:#ffffff;stroke-width:39.37009811;stroke-linecap:round;stroke-linejoin:round;stroke-opacity:1"
     id="g10103"
     transform="translate(-13206.998,36291.944)" />
  <g
     style="fill:#ffffff;fill-opacity:1;stroke:#ffffff;stroke-width:39.37009811;stroke-linecap:round;stroke-linejoin:round;stroke-opacity:1"
     id="g10109"
     transform="translate(-13206.998,36291.944)" />
  <g
     style="fill:#ffffff;fill-opacity:1;stroke:#ffffff;stroke-width:39.37009811;stroke-linecap:round;stroke-linejoin:round;stroke-opacity:1"
     id="g10115"
     transform="translate(-13206.998,36291.944)" />
  <g
     style="fill:#ffffff;fill-opacity:1;stroke:#ffffff;stroke-width:39.37009811;stroke-linecap:round;stroke-linejoin:round;stroke-opacity:1"
     id="g10121"
     transform="translate(-13206.998,36291.944)" />
  <g
     style="fill:#ffffff;fill-opacity:1;stroke:#ffffff;stroke-width:39.37009811;stroke-linecap:round;stroke-linejoin:round;stroke-opacity:1"
     id="g10127"
     transform="translate(-13206.998,36291.944)" />
  <g
     style="fill:#ffffff;fill-opacity:1;stroke:#ffffff;stroke-width:39.37009811;stroke-linecap:round;stroke-linejoin:round;stroke-opacity:1"
     id="g10133"
     transform="translate(-13206.998,36291.944)" />
  <g
     style="fill:#ffffff;fill-opacity:1;stroke:#ffffff;stroke-width:39.37009811;stroke-linecap:round;stroke-linejoin:round;stroke-opacity:1"
     id="g10139"
     transform="translate(-13206.998,36291.944)" />
  <g
     style="fill:#ffffff;fill-opacity:1;stroke:#ffffff;stroke-width:39.37009811;stroke-linecap:round;stroke-linejoin:round;stroke-opacity:1"
     id="g10145"
     transform="translate(-13206.998,36291.944)" />
  <g
     style="fill:#ffffff;fill-opacity:1;stroke:#ffffff;stroke-width:39.37009811;stroke-linecap:round;stroke-linejoin:round;stroke-opacity:1"
     id="g10151"
     transform="translate(-13206.998,36291.944)" />
  <g
     style="fill:#ffffff;fill-opacity:1;stroke:#ffffff;stroke-width:39.37009811;stroke-linecap:round;stroke-linejoin:round;stroke-opacity:1"
     id="g10157"
     transform="translate(-13206.998,36291.944)" />
  <g
     style="fill:#ffffff;fill-opacity:1;stroke:#ffffff;stroke-width:39.37009811;stroke-linecap:round;stroke-linejoin:round;stroke-opacity:1"
     id="g10163"
     transform="translate(-13206.998,36291.944)" />
  <g
     style="fill:#ffffff;fill-opacity:1;stroke:#ffffff;stroke-width:39.37009811;stroke-linecap:round;stroke-linejoin:round;stroke-opacity:1"
     id="g10169"
     transform="translate(-13206.998,36291.944)" />
  <g
     style="fill:#ffffff;fill-opacity:1;stroke:#ffffff;stroke-width:39.37009811;stroke-linecap:round;stroke-linejoin:round;stroke-opacity:1"
     id="g10175"
     transform="translate(-13206.998,36291.944)" />
  <g
     style="fill:#ffffff;fill-opacity:1;stroke:#ffffff;stroke-width:39.37009811;stroke-linecap:round;stroke-linejoin:round;stroke-opacity:1"
     id="g10181"
     transform="translate(-13206.998,36291.944)" />
  <g
     style="fill:#ffffff;fill-opacity:1;stroke:#ffffff;stroke-width:39.37009811;stroke-linecap:round;stroke-linejoin:round;stroke-opacity:1"
     id="g10187"
     transform="translate(-13206.998,36291.944)" />
  <g
     style="fill:#ffffff;fill-opacity:1;stroke:#ffffff;stroke-width:39.37009811;stroke-linecap:round;stroke-linejoin:round;stroke-opacity:1"
     id="g10193"
     transform="translate(-13206.998,36291.944)" />
  <g
     style="fill:#ffffff;fill-opacity:1;stroke:#ffffff;stroke-width:39.37009811;stroke-linecap:round;stroke-linejoin:round;stroke-opacity:1"
     id="g10199"
     transform="translate(-13206.998,36291.944)" />
  <g
     style="fill:#ffffff;fill-opacity:1;stroke:#ffffff;stroke-width:39.37009811;stroke-linecap:round;stroke-linejoin:round;stroke-opacity:1"
     id="g10205"
     transform="translate(-13206.998,36291.944)" />
  <g
     style="fill:#ffffff;fill-opacity:1;stroke:#ffffff;stroke-width:39.37009811;stroke-linecap:round;stroke-linejoin:round;stroke-opacity:1"
     id="g10211"
     transform="translate(-13206.998,36291.944)" />
  <g
     style="fill:#ffffff;fill-opacity:1;stroke:#ffffff;stroke-width:39.37009811;stroke-linecap:round;stroke-linejoin:round;stroke-opacity:1"
     id="g10217"
     transform="translate(-13206.998,36291.944)" />
  <g
     style="fill:#ffffff;fill-opacity:1;stroke:#ffffff;stroke-width:39.37009811;stroke-linecap:round;stroke-linejoin:round;stroke-opacity:1"
     id="g10223"
     transform="translate(-13206.998,36291.944)" />
  <g
     style="fill:#ffffff;fill-opacity:1;stroke:#ffffff;stroke-width:39.37009811;stroke-linecap:round;stroke-linejoin:round;stroke-opacity:1"
     id="g10229"
     transform="translate(-13206.998,36291.944)" />
  <g
     style="fill:#ffffff;fill-opacity:1;stroke:#ffffff;stroke-width:39.37009811;stroke-linecap:round;stroke-linejoin:round;stroke-opacity:1"
     id="g10235"
     transform="translate(-13206.998,36291.944)" />
  <g
     style="fill:#ffffff;fill-opacity:1;stroke:#ffffff;stroke-width:39.37009811;stroke-linecap:round;stroke-linejoin:round;stroke-opacity:1"
     id="g10241"
     transform="translate(-13206.998,36291.944)" />
  <g
     style="fill:#ffffff;fill-opacity:1;stroke:#ffffff;stroke-width:39.37009811;stroke-linecap:round;stroke-linejoin:round;stroke-opacity:1"
     id="g10247"
     transform="translate(-13206.998,36291.944)" />
  <g
     style="fill:#ffffff;fill-opacity:1;stroke:#ffffff;stroke-width:39.37009811;stroke-linecap:round;stroke-linejoin:round;stroke-opacity:1"
     id="g10253"
     transform="translate(-13206.998,36291.944)" />
  <g
     style="fill:#ffffff;fill-opacity:1;stroke:#ffffff;stroke-width:39.37009811;stroke-linecap:round;stroke-linejoin:round;stroke-opacity:1"
     id="g10259"
     transform="translate(-13206.998,36291.944)" />
  <g
     style="fill:#ffffff;fill-opacity:1;stroke:#ffffff;stroke-width:39.37009811;stroke-linecap:round;stroke-linejoin:round;stroke-opacity:1"
     id="g10265"
     transform="translate(-13206.998,36291.944)" />
  <g
     style="fill:#ffffff;fill-opacity:1;stroke:#ffffff;stroke-width:39.37009811;stroke-linecap:round;stroke-linejoin:round;stroke-opacity:1"
     id="g10271"
     transform="translate(-13206.998,36291.944)" />
  <g
     style="fill:#ffffff;fill-opacity:1;stroke:#ffffff;stroke-width:39.37009811;stroke-linecap:round;stroke-linejoin:round;stroke-opacity:1"
     id="g10277"
     transform="translate(-13206.998,36291.944)" />
  <g
     style="fill:#ffffff;fill-opacity:1;stroke:#ffffff;stroke-width:39.37009811;stroke-linecap:round;stroke-linejoin:round;stroke-opacity:1"
     id="g10283"
     transform="translate(-13206.998,36291.944)" />
  <g
     style="fill:#ffffff;fill-opacity:1;stroke:#ffffff;stroke-width:39.37009811;stroke-linecap:round;stroke-linejoin:round;stroke-opacity:1"
     id="g10289"
     transform="translate(-13206.998,36291.944)" />
  <g
     style="fill:#ffffff;fill-opacity:1;stroke:#ffffff;stroke-width:39.37009811;stroke-linecap:round;stroke-linejoin:round;stroke-opacity:1"
     id="g10295"
     transform="translate(-13206.998,36291.944)" />
  <g
     style="fill:#ffffff;fill-opacity:1;stroke:#ffffff;stroke-width:39.37009811;stroke-linecap:round;stroke-linejoin:round;stroke-opacity:1"
     id="g10301"
     transform="translate(-13206.998,36291.944)" />
  <g
     style="fill:#ffffff;fill-opacity:1;stroke:#ffffff;stroke-width:39.37009811;stroke-linecap:round;stroke-linejoin:round;stroke-opacity:1"
     id="g10307"
     transform="translate(-13206.998,36291.944)" />
  <g
     style="fill:#ffffff;fill-opacity:1;stroke:#ffffff;stroke-width:39.37009811;stroke-linecap:round;stroke-linejoin:round;stroke-opacity:1"
     id="g10313"
     transform="translate(-13206.998,36291.944)" />
  <g
     style="fill:#ffffff;fill-opacity:1;stroke:#ffffff;stroke-width:39.37009811;stroke-linecap:round;stroke-linejoin:round;stroke-opacity:1"
     id="g10319"
     transform="translate(-13206.998,36291.944)" />
  <g
     style="fill:#ffffff;fill-opacity:1;stroke:#ffffff;stroke-width:39.37009811;stroke-linecap:round;stroke-linejoin:round;stroke-opacity:1"
     id="g10325"
     transform="translate(-13206.998,36291.944)" />
  <g
     style="fill:#ffffff;fill-opacity:1;stroke:#ffffff;stroke-width:39.37009811;stroke-linecap:round;stroke-linejoin:round;stroke-opacity:1"
     id="g10331"
     transform="translate(-13206.998,36291.944)" />
  <g
     style="fill:#ffffff;fill-opacity:1;stroke:#ffffff;stroke-width:39.37009811;stroke-linecap:round;stroke-linejoin:round;stroke-opacity:1"
     id="g10337"
     transform="translate(-13206.998,36291.944)" />
  <g
     style="fill:#ffffff;fill-opacity:1;stroke:#ffffff;stroke-width:39.37009811;stroke-linecap:round;stroke-linejoin:round;stroke-opacity:1"
     id="g10343"
     transform="translate(-13206.998,36291.944)" />
  <g
     style="fill:#ffffff;fill-opacity:1;stroke:#ffffff;stroke-width:39.37009811;stroke-linecap:round;stroke-linejoin:round;stroke-opacity:1"
     id="g10349"
     transform="translate(-13206.998,36291.944)" />
  <g
     style="fill:#ffffff;fill-opacity:1;stroke:#ffffff;stroke-width:39.37009811;stroke-linecap:round;stroke-linejoin:round;stroke-opacity:1"
     id="g10355"
     transform="translate(-13206.998,36291.944)" />
  <g
     style="fill:#ffffff;fill-opacity:1;stroke:#ffffff;stroke-width:39.37009811;stroke-linecap:round;stroke-linejoin:round;stroke-opacity:1"
     id="g10361"
     transform="translate(-13206.998,36291.944)" />
  <g
     style="fill:#ffffff;fill-opacity:1;stroke:#ffffff;stroke-width:39.37009811;stroke-linecap:round;stroke-linejoin:round;stroke-opacity:1"
     id="g10367"
     transform="translate(-13206.998,36291.944)" />
  <g
     style="fill:#ffffff;fill-opacity:1;stroke:#ffffff;stroke-width:39.37009811;stroke-linecap:round;stroke-linejoin:round;stroke-opacity:1"
     id="g10373"
     transform="translate(-13206.998,36291.944)" />
  <g
     style="fill:#ffffff;fill-opacity:1;stroke:#ffffff;stroke-width:39.37009811;stroke-linecap:round;stroke-linejoin:round;stroke-opacity:1"
     id="g10379"
     transform="translate(-13206.998,36291.944)" />
  <g
     style="fill:#ffffff;fill-opacity:1;stroke:#ffffff;stroke-width:39.37009811;stroke-linecap:round;stroke-linejoin:round;stroke-opacity:1"
     id="g10385"
     transform="translate(-13206.998,36291.944)" />
  <g
     style="fill:#ffffff;fill-opacity:1;stroke:#ffffff;stroke-width:39.37009811;stroke-linecap:round;stroke-linejoin:round;stroke-opacity:1"
     id="g10391"
     transform="translate(-13206.998,36291.944)" />
  <g
     style="fill:#ffffff;fill-opacity:1;stroke:#ffffff;stroke-width:39.37009811;stroke-linecap:round;stroke-linejoin:round;stroke-opacity:1"
     id="g10397"
     transform="translate(-13206.998,36291.944)" />
  <g
     style="fill:#ffffff;fill-opacity:1;stroke:#ffffff;stroke-width:39.37009811;stroke-linecap:round;stroke-linejoin:round;stroke-opacity:1"
     id="g10403"
     transform="translate(-13206.998,36291.944)" />
  <g
     style="fill:#ffffff;fill-opacity:1;stroke:#ffffff;stroke-width:39.37009811;stroke-linecap:round;stroke-linejoin:round;stroke-opacity:1"
     id="g10409"
     transform="translate(-13206.998,36291.944)" />
  <g
     style="fill:#ffffff;fill-opacity:1;stroke:#ffffff;stroke-width:39.37009811;stroke-linecap:round;stroke-linejoin:round;stroke-opacity:1"
     id="g10415"
     transform="translate(-13206.998,36291.944)" />
  <g
     style="fill:#ffffff;fill-opacity:1;stroke:#ffffff;stroke-width:39.37009811;stroke-linecap:round;stroke-linejoin:round;stroke-opacity:1"
     id="g10421"
     transform="translate(-13206.998,36291.944)" />
  <g
     style="fill:#ffffff;fill-opacity:1;stroke:#ffffff;stroke-width:39.37009811;stroke-linecap:round;stroke-linejoin:round;stroke-opacity:1"
     id="g10427"
     transform="translate(-13206.998,36291.944)" />
  <g
     style="fill:#ffffff;fill-opacity:1;stroke:#ffffff;stroke-width:39.37009811;stroke-linecap:round;stroke-linejoin:round;stroke-opacity:1"
     id="g10433"
     transform="translate(-13206.998,36291.944)" />
  <g
     style="fill:#ffffff;fill-opacity:1;stroke:#ffffff;stroke-width:39.37009811;stroke-linecap:round;stroke-linejoin:round;stroke-opacity:1"
     id="g10439"
     transform="translate(-13206.998,36291.944)" />
  <g
     style="fill:#ffffff;fill-opacity:1;stroke:#ffffff;stroke-width:39.37009811;stroke-linecap:round;stroke-linejoin:round;stroke-opacity:1"
     id="g10445"
     transform="translate(-13206.998,36291.944)" />
  <g
     style="fill:#ffffff;fill-opacity:1;stroke:#ffffff;stroke-width:39.37009811;stroke-linecap:round;stroke-linejoin:round;stroke-opacity:1"
     id="g10451"
     transform="translate(-13206.998,36291.944)" />
  <g
     style="fill:#ffffff;fill-opacity:1;stroke:#ffffff;stroke-width:39.37009811;stroke-linecap:round;stroke-linejoin:round;stroke-opacity:1"
     id="g10457"
     transform="translate(-13206.998,36291.944)" />
  <g
     style="fill:#ffffff;fill-opacity:1;stroke:#ffffff;stroke-width:39.37009811;stroke-linecap:round;stroke-linejoin:round;stroke-opacity:1"
     id="g10463"
     transform="translate(-13206.998,36291.944)" />
  <g
     style="fill:#ffffff;fill-opacity:1;stroke:#ffffff;stroke-width:39.37009811;stroke-linecap:round;stroke-linejoin:round;stroke-opacity:1"
     id="g10469"
     transform="translate(-13206.998,36291.944)" />
  <g
     style="fill:#ffffff;fill-opacity:1;stroke:#ffffff;stroke-width:39.37009811;stroke-linecap:round;stroke-linejoin:round;stroke-opacity:1"
     id="g10475"
     transform="translate(-13206.998,36291.944)" />
  <g
     style="fill:#ffffff;fill-opacity:1;stroke:#ffffff;stroke-width:39.37009811;stroke-linecap:round;stroke-linejoin:round;stroke-opacity:1"
     id="g10481"
     transform="translate(-13206.998,36291.944)" />
  <g
     style="fill:#ffffff;fill-opacity:1;stroke:#ffffff;stroke-width:39.37009811;stroke-linecap:round;stroke-linejoin:round;stroke-opacity:1"
     id="g10487"
     transform="translate(-13206.998,36291.944)" />
  <g
     style="fill:#ffffff;fill-opacity:1;stroke:#ffffff;stroke-width:39.37009811;stroke-linecap:round;stroke-linejoin:round;stroke-opacity:1"
     id="g10493"
     transform="translate(-13206.998,36291.944)" />
  <g
     style="fill:#ffffff;fill-opacity:1;stroke:#ffffff;stroke-width:39.37009811;stroke-linecap:round;stroke-linejoin:round;stroke-opacity:1"
     id="g10499"
     transform="translate(-13206.998,36291.944)" />
  <g
     style="fill:#ffffff;fill-opacity:1;stroke:#ffffff;stroke-width:39.37009811;stroke-linecap:round;stroke-linejoin:round;stroke-opacity:1"
     id="g10505"
     transform="translate(-13206.998,36291.944)" />
  <g
     style="fill:#ffffff;fill-opacity:1;stroke:#ffffff;stroke-width:39.37009811;stroke-linecap:round;stroke-linejoin:round;stroke-opacity:1"
     id="g10511"
     transform="translate(-13206.998,36291.944)" />
  <g
     style="fill:#ffffff;fill-opacity:1;stroke:#ffffff;stroke-width:39.37009811;stroke-linecap:round;stroke-linejoin:round;stroke-opacity:1"
     id="g10517"
     transform="translate(-13206.998,36291.944)" />
  <g
     style="fill:#ffffff;fill-opacity:1;stroke:#ffffff;stroke-width:39.37009811;stroke-linecap:round;stroke-linejoin:round;stroke-opacity:1"
     id="g10523"
     transform="translate(-13206.998,36291.944)" />
  <g
     style="fill:#ffffff;fill-opacity:1;stroke:#ffffff;stroke-width:39.37009811;stroke-linecap:round;stroke-linejoin:round;stroke-opacity:1"
     id="g10529"
     transform="translate(-13206.998,36291.944)" />
  <g
     style="fill:#ffffff;fill-opacity:1;stroke:#ffffff;stroke-width:39.37009811;stroke-linecap:round;stroke-linejoin:round;stroke-opacity:1"
     id="g10535"
     transform="translate(-13206.998,36291.944)" />
  <g
     style="fill:#ffffff;fill-opacity:1;stroke:#ffffff;stroke-width:39.37009811;stroke-linecap:round;stroke-linejoin:round;stroke-opacity:1"
     id="g10541"
     transform="translate(-13206.998,36291.944)" />
  <g
     style="fill:#ffffff;fill-opacity:1;stroke:#ffffff;stroke-width:39.37009811;stroke-linecap:round;stroke-linejoin:round;stroke-opacity:1"
     id="g10547"
     transform="translate(-13206.998,36291.944)" />
  <g
     style="fill:#ffffff;fill-opacity:1;stroke:#ffffff;stroke-width:39.37009811;stroke-linecap:round;stroke-linejoin:round;stroke-opacity:1"
     id="g10553"
     transform="translate(-13206.998,36291.944)" />
  <g
     style="fill:#ffffff;fill-opacity:1;stroke:#ffffff;stroke-width:39.37009811;stroke-linecap:round;stroke-linejoin:round;stroke-opacity:1"
     id="g10559"
     transform="translate(-13206.998,36291.944)" />
  <g
     style="fill:#000000;fill-opacity:1;stroke:#000000;stroke-width:39.37009811;stroke-linecap:round;stroke-linejoin:round;stroke-opacity:1"
     id="g10561"
     transform="translate(-13206.998,36291.944)" />
  <g
     style="fill:#000000;fill-opacity:1;stroke:#000000;stroke-width:50;stroke-linecap:round;stroke-linejoin:round;stroke-opacity:1"
     id="g10563"
     transform="translate(-13206.998,36291.944)" />
  <g
     style="fill:#000000;fill-opacity:0;stroke:#000000;stroke-width:120;stroke-linecap:round;stroke-linejoin:round;stroke-opacity:1"
     id="g13073"
     transform="translate(-13206.998,36291.944)" />
  <g
     style="fill:#000000;fill-opacity:0;stroke:#000000;stroke-width:120;stroke-linecap:round;stroke-linejoin:round;stroke-opacity:1"
     id="g13081"
     transform="translate(-13206.998,36291.944)" />
  <g
     style="fill:#000000;fill-opacity:0;stroke:#000000;stroke-width:113;stroke-linecap:round;stroke-linejoin:round;stroke-opacity:1"
     id="g13091"
     transform="translate(-13206.998,36291.944)" />
  <g
     style="fill:#000000;fill-opacity:0;stroke:#000000;stroke-width:113;stroke-linecap:round;stroke-linejoin:round;stroke-opacity:1"
     id="g13099"
     transform="translate(-13206.998,36291.944)" />
  <g
     style="fill:#000000;fill-opacity:0;stroke:#000000;stroke-width:113;stroke-linecap:round;stroke-linejoin:round;stroke-opacity:1"
     id="g13141"
     transform="translate(-13206.998,36291.944)" />
  <g
     style="fill:#000000;fill-opacity:0;stroke:#000000;stroke-width:120;stroke-linecap:round;stroke-linejoin:round;stroke-opacity:1"
     id="g13473"
     transform="translate(-13206.998,36291.944)" />
  <g
     style="fill:#000000;fill-opacity:0;stroke:#000000;stroke-width:120;stroke-linecap:round;stroke-linejoin:round;stroke-opacity:1"
     id="g13483"
     transform="translate(-13206.998,36291.944)" />
  <g
     style="fill:#000000;fill-opacity:0;stroke:#000000;stroke-width:120;stroke-linecap:round;stroke-linejoin:round;stroke-opacity:1"
     id="g13493"
     transform="translate(-13206.998,36291.944)" />
  <g
     style="fill:#000000;fill-opacity:0;stroke:#000000;stroke-width:120;stroke-linecap:round;stroke-linejoin:round;stroke-opacity:1"
     id="g13501"
     transform="translate(-13206.998,36291.944)" />
  <g
     style="fill:#000000;fill-opacity:0;stroke:#000000;stroke-width:120;stroke-linecap:round;stroke-linejoin:round;stroke-opacity:1"
     id="g13509"
     transform="translate(-13206.998,36291.944)" />
  <text
     xml:space="preserve"
     style="font-style:normal;font-variant:normal;font-weight:normal;font-stretch:normal;font-size:4444.44482422px;line-height:125%;font-family:Cicle;-inkscape-font-specification:Cicle;letter-spacing:0px;word-spacing:0px;fill:#000000;fill-opacity:1;stroke:none;stroke-width:1px;stroke-linecap:butt;stroke-linejoin:miter;stroke-opacity:1"
     x="24534.875"
     y="21081.783"
     id="text14355"
     sodipodi:linespacing="125%"><tspan
       sodipodi:role="line"
       id="tspan14357"
       x="24534.875"
       y="21081.783"
       style="font-size:1527.77783203px"
       dx="0 0 0 0 0 0 0 0 0 0 0 0 0 0 0 0 0 0 206.56479 0 0 0 0 0 0 0 0 0 0 0 0 0 0 0 0 0 0 0 0 0 0 0 0 0 0 0 0 165.25183 0 0 0 0 0 0 0 0 0 0 0 0 0 0 0 0">    state         symbol      next state       write     L/R    #</tspan></text>
  <rect
     style="opacity:1;fill:none;fill-opacity:1;stroke:#000000;stroke-width:202.02264404;stroke-linecap:square;stroke-miterlimit:4;stroke-dasharray:none;stroke-opacity:1"
     id="rect13780"
     width="38645.094"
     height="99510.734"
     x="21882.537"
     y="8591.8135" />
  <rect
     style="opacity:1;fill:none;fill-opacity:1;stroke:#000000;stroke-width:111.1111145;stroke-linecap:square;stroke-miterlimit:4;stroke-dasharray:none;stroke-opacity:1"
     id="rect13782"
     width="2048.1741"
     height="3175.6516"
     x="23963.68"
     y="21671.189" />
  <rect
     y="21671.189"
     x="26911.893"
     height="3175.6516"
     width="2048.1741"
     id="rect13784"
     style="opacity:1;fill:none;fill-opacity:1;stroke:#000000;stroke-width:111.1111145;stroke-linecap:square;stroke-miterlimit:4;stroke-dasharray:none;stroke-opacity:1" />
  <rect
     style="opacity:1;fill:none;fill-opacity:1;stroke:#000000;stroke-width:111.1111145;stroke-linecap:square;stroke-miterlimit:4;stroke-dasharray:none;stroke-opacity:1"
     id="rect13786"
     width="2048.1741"
     height="3175.6516"
     x="29839.469"
     y="21671.189" />
  <rect
     y="21671.189"
     x="32808.32"
     height="3175.6516"
     width="2048.1741"
     id="rect13788"
     style="opacity:1;fill:#000000;fill-opacity:1;stroke:#000000;stroke-width:111.1111145;stroke-linecap:square;stroke-miterlimit:4;stroke-dasharray:none;stroke-opacity:1" />
  <rect
     style="opacity:1;fill:#000000;fill-opacity:1;stroke:#000000;stroke-width:111.1111145;stroke-linecap:square;stroke-miterlimit:4;stroke-dasharray:none;stroke-opacity:1"
     id="rect13790"
     width="2048.1741"
     height="3175.6516"
     x="35756.535"
     y="21671.189" />
  <rect
     y="21671.189"
     x="38704.75"
     height="3175.6516"
     width="2048.1741"
     id="rect13792"
     style="opacity:1;fill:none;fill-opacity:1;stroke:#000000;stroke-width:111.1111145;stroke-linecap:square;stroke-miterlimit:4;stroke-dasharray:none;stroke-opacity:1" />
  <rect
     style="opacity:1;fill:none;fill-opacity:1;stroke:#000000;stroke-width:111.1111145;stroke-linecap:square;stroke-miterlimit:4;stroke-dasharray:none;stroke-opacity:1"
     id="rect13794"
     width="2048.1741"
     height="3175.6516"
     x="41652.961"
     y="21671.189" />
  <rect
     y="21671.189"
     x="44621.812"
     height="3175.6516"
     width="2048.1741"
     id="rect13796"
     style="opacity:1;fill:none;fill-opacity:1;stroke:#000000;stroke-width:111.1111145;stroke-linecap:square;stroke-miterlimit:4;stroke-dasharray:none;stroke-opacity:1" />
  <rect
     style="opacity:1;fill:#000000;fill-opacity:1;stroke:#000000;stroke-width:111.1111145;stroke-linecap:square;stroke-miterlimit:4;stroke-dasharray:none;stroke-opacity:1"
     id="rect13798"
     width="2048.1741"
     height="3175.6516"
     x="47549.391"
     y="21671.189" />
  <rect
     y="21671.189"
     x="50497.605"
     height="3175.6516"
     width="2048.1741"
     id="rect13800"
     style="opacity:1;fill:#000000;fill-opacity:1;stroke:#000000;stroke-width:111.1111145;stroke-linecap:square;stroke-miterlimit:4;stroke-dasharray:none;stroke-opacity:1" />
  <rect
     style="opacity:1;fill:none;fill-opacity:1;stroke:#000000;stroke-width:111.1111145;stroke-linecap:square;stroke-miterlimit:4;stroke-dasharray:none;stroke-opacity:1"
     id="rect13802"
     width="2048.1741"
     height="3175.6516"
     x="53445.82"
     y="21671.189" />
  <rect
     y="21671.189"
     x="56394.031"
     height="3175.6516"
     width="2048.1741"
     id="rect13804"
     style="opacity:1;fill:#000000;fill-opacity:1;stroke:#000000;stroke-width:111.1111145;stroke-linecap:square;stroke-miterlimit:4;stroke-dasharray:none;stroke-opacity:1" />
  <rect
     y="28337.855"
     x="23963.68"
     height="3175.6516"
     width="2048.1741"
     id="rect13822"
     style="opacity:1;fill:none;fill-opacity:1;stroke:#000000;stroke-width:111.1111145;stroke-linecap:square;stroke-miterlimit:4;stroke-dasharray:none;stroke-opacity:1" />
  <rect
     style="opacity:1;fill:none;fill-opacity:1;stroke:#000000;stroke-width:111.1111145;stroke-linecap:square;stroke-miterlimit:4;stroke-dasharray:none;stroke-opacity:1"
     id="rect13824"
     width="2048.1741"
     height="3175.6516"
     x="26911.893"
     y="28337.855" />
  <rect
     y="28337.855"
     x="29839.469"
     height="3175.6516"
     width="2048.1741"
     id="rect13826"
     style="opacity:1;fill:none;fill-opacity:1;stroke:#000000;stroke-width:111.1111145;stroke-linecap:square;stroke-miterlimit:4;stroke-dasharray:none;stroke-opacity:1" />
  <rect
     style="opacity:1;fill:none;fill-opacity:1;stroke:#000000;stroke-width:111.1111145;stroke-linecap:square;stroke-miterlimit:4;stroke-dasharray:none;stroke-opacity:1"
     id="rect13828"
     width="2048.1741"
     height="3175.6516"
     x="32808.32"
     y="28337.855" />
  <rect
     y="28337.855"
     x="35756.535"
     height="3175.6516"
     width="2048.1741"
     id="rect13830"
     style="opacity:1;fill:#000000;fill-opacity:1;stroke:#000000;stroke-width:111.1111145;stroke-linecap:square;stroke-miterlimit:4;stroke-dasharray:none;stroke-opacity:1" />
  <rect
     style="opacity:1;fill:none;fill-opacity:1;stroke:#000000;stroke-width:111.1111145;stroke-linecap:square;stroke-miterlimit:4;stroke-dasharray:none;stroke-opacity:1"
     id="rect13832"
     width="2048.1741"
     height="3175.6516"
     x="38704.75"
     y="28337.855" />
  <rect
     y="28337.855"
     x="41652.961"
     height="3175.6516"
     width="2048.1741"
     id="rect13834"
     style="opacity:1;fill:none;fill-opacity:1;stroke:#000000;stroke-width:111.1111145;stroke-linecap:square;stroke-miterlimit:4;stroke-dasharray:none;stroke-opacity:1" />
  <rect
     style="opacity:1;fill:#000000;fill-opacity:1;stroke:#000000;stroke-width:111.1111145;stroke-linecap:square;stroke-miterlimit:4;stroke-dasharray:none;stroke-opacity:1"
     id="rect13836"
     width="2048.1741"
     height="3175.6516"
     x="44621.812"
     y="28337.855" />
  <rect
     y="28337.855"
     x="47549.391"
     height="3175.6516"
     width="2048.1741"
     id="rect13838"
     style="opacity:1;fill:#000000;fill-opacity:1;stroke:#000000;stroke-width:111.1111145;stroke-linecap:square;stroke-miterlimit:4;stroke-dasharray:none;stroke-opacity:1" />
  <rect
     style="opacity:1;fill:none;fill-opacity:1;stroke:#000000;stroke-width:111.1111145;stroke-linecap:square;stroke-miterlimit:4;stroke-dasharray:none;stroke-opacity:1"
     id="rect13840"
     width="2048.1741"
     height="3175.6516"
     x="50497.605"
     y="28337.855" />
  <rect
     y="28337.855"
     x="53445.82"
     height="3175.6516"
     width="2048.1741"
     id="rect13842"
     style="opacity:1;fill:#000000;fill-opacity:1;stroke:#000000;stroke-width:111.1111145;stroke-linecap:square;stroke-miterlimit:4;stroke-dasharray:none;stroke-opacity:1" />
  <rect
     style="opacity:1;fill:#000000;fill-opacity:1;stroke:#000000;stroke-width:111.1111145;stroke-linecap:square;stroke-miterlimit:4;stroke-dasharray:none;stroke-opacity:1"
     id="rect13844"
     width="2048.1741"
     height="3175.6516"
     x="56394.031"
     y="28337.855" />
  <rect
     style="opacity:1;fill:none;fill-opacity:1;stroke:#000000;stroke-width:111.1111145;stroke-linecap:square;stroke-miterlimit:4;stroke-dasharray:none;stroke-opacity:1"
     id="rect13848"
     width="2048.1741"
     height="3175.6516"
     x="23963.68"
     y="35004.523" />
  <rect
     y="35004.523"
     x="26911.893"
     height="3175.6516"
     width="2048.1741"
     id="rect13850"
     style="opacity:1;fill:none;fill-opacity:1;stroke:#000000;stroke-width:111.1111145;stroke-linecap:square;stroke-miterlimit:4;stroke-dasharray:none;stroke-opacity:1" />
  <rect
     style="opacity:1;fill:none;fill-opacity:1;stroke:#000000;stroke-width:111.1111145;stroke-linecap:square;stroke-miterlimit:4;stroke-dasharray:none;stroke-opacity:1"
     id="rect13852"
     width="2048.1741"
     height="3175.6516"
     x="29839.469"
     y="35004.523" />
  <rect
     y="35004.523"
     x="32808.32"
     height="3175.6516"
     width="2048.1741"
     id="rect13854"
     style="opacity:1;fill:#000000;fill-opacity:1;stroke:#000000;stroke-width:111.1111145;stroke-linecap:square;stroke-miterlimit:4;stroke-dasharray:none;stroke-opacity:1" />
  <rect
     style="opacity:1;fill:none;fill-opacity:1;stroke:#000000;stroke-width:111.1111145;stroke-linecap:square;stroke-miterlimit:4;stroke-dasharray:none;stroke-opacity:1"
     id="rect13856"
     width="2048.1741"
     height="3175.6516"
     x="35756.535"
     y="35004.523" />
  <rect
     y="35004.523"
     x="38704.75"
     height="3175.6516"
     width="2048.1741"
     id="rect13858"
     style="opacity:1;fill:none;fill-opacity:1;stroke:#000000;stroke-width:111.1111145;stroke-linecap:square;stroke-miterlimit:4;stroke-dasharray:none;stroke-opacity:1" />
  <rect
     style="opacity:1;fill:none;fill-opacity:1;stroke:#000000;stroke-width:111.1111145;stroke-linecap:square;stroke-miterlimit:4;stroke-dasharray:none;stroke-opacity:1"
     id="rect13860"
     width="2048.1741"
     height="3175.6516"
     x="41652.961"
     y="35004.523" />
  <rect
     y="35004.523"
     x="44621.812"
     height="3175.6516"
     width="2048.1741"
     id="rect13862"
     style="opacity:1;fill:none;fill-opacity:1;stroke:#000000;stroke-width:111.1111145;stroke-linecap:square;stroke-miterlimit:4;stroke-dasharray:none;stroke-opacity:1" />
  <rect
     style="opacity:1;fill:#000000;fill-opacity:1;stroke:#000000;stroke-width:111.1111145;stroke-linecap:square;stroke-miterlimit:4;stroke-dasharray:none;stroke-opacity:1"
     id="rect13864"
     width="2048.1741"
     height="3175.6516"
     x="47549.391"
     y="35004.523" />
  <rect
     y="35004.523"
     x="50497.605"
     height="3175.6516"
     width="2048.1741"
     id="rect13866"
     style="opacity:1;fill:#000000;fill-opacity:1;stroke:#000000;stroke-width:111.1111145;stroke-linecap:square;stroke-miterlimit:4;stroke-dasharray:none;stroke-opacity:1" />
  <rect
     style="opacity:1;fill:#000000;fill-opacity:1;stroke:#000000;stroke-width:111.1111145;stroke-linecap:square;stroke-miterlimit:4;stroke-dasharray:none;stroke-opacity:1"
     id="rect13868"
     width="2048.1741"
     height="3175.6516"
     x="53445.82"
     y="35004.523" />
  <rect
     y="35004.523"
     x="56394.031"
     height="3175.6516"
     width="2048.1741"
     id="rect13870"
     style="opacity:1;fill:#000000;fill-opacity:1;stroke:#000000;stroke-width:111.1111145;stroke-linecap:square;stroke-miterlimit:4;stroke-dasharray:none;stroke-opacity:1" />
  <rect
     y="41671.191"
     x="23963.68"
     height="3175.6516"
     width="2048.1741"
     id="rect13874"
     style="opacity:1;fill:none;fill-opacity:1;stroke:#000000;stroke-width:111.1111145;stroke-linecap:square;stroke-miterlimit:4;stroke-dasharray:none;stroke-opacity:1" />
  <rect
     style="opacity:1;fill:none;fill-opacity:1;stroke:#000000;stroke-width:111.1111145;stroke-linecap:square;stroke-miterlimit:4;stroke-dasharray:none;stroke-opacity:1"
     id="rect13876"
     width="2048.1741"
     height="3175.6516"
     x="26911.893"
     y="41671.191" />
  <rect
     y="41671.191"
     x="29839.469"
     height="3175.6516"
     width="2048.1741"
     id="rect13878"
     style="opacity:1;fill:none;fill-opacity:1;stroke:#000000;stroke-width:111.1111145;stroke-linecap:square;stroke-miterlimit:4;stroke-dasharray:none;stroke-opacity:1" />
  <rect
     style="opacity:1;fill:none;fill-opacity:1;stroke:#000000;stroke-width:111.1111145;stroke-linecap:square;stroke-miterlimit:4;stroke-dasharray:none;stroke-opacity:1"
     id="rect13880"
     width="2048.1741"
     height="3175.6516"
     x="32808.32"
     y="41671.191" />
  <rect
     y="41671.191"
     x="35756.535"
     height="3175.6516"
     width="2048.1741"
     id="rect13882"
     style="opacity:1;fill:none;fill-opacity:1;stroke:#000000;stroke-width:111.1111145;stroke-linecap:square;stroke-miterlimit:4;stroke-dasharray:none;stroke-opacity:1" />
  <rect
     style="opacity:1;fill:none;fill-opacity:1;stroke:#000000;stroke-width:111.1111145;stroke-linecap:square;stroke-miterlimit:4;stroke-dasharray:none;stroke-opacity:1"
     id="rect13884"
     width="2048.1741"
     height="3175.6516"
     x="38704.75"
     y="41671.191" />
  <rect
     y="41671.191"
     x="41652.961"
     height="3175.6516"
     width="2048.1741"
     id="rect13886"
     style="opacity:1;fill:none;fill-opacity:1;stroke:#000000;stroke-width:111.1111145;stroke-linecap:square;stroke-miterlimit:4;stroke-dasharray:none;stroke-opacity:1" />
  <rect
     style="opacity:1;fill:#000000;fill-opacity:1;stroke:#000000;stroke-width:111.1111145;stroke-linecap:square;stroke-miterlimit:4;stroke-dasharray:none;stroke-opacity:1"
     id="rect13888"
     width="2048.1741"
     height="3175.6516"
     x="44621.812"
     y="41671.191" />
  <rect
     y="41671.191"
     x="47549.391"
     height="3175.6516"
     width="2048.1741"
     id="rect13890"
     style="opacity:1;fill:#000000;fill-opacity:1;stroke:#000000;stroke-width:111.1111145;stroke-linecap:square;stroke-miterlimit:4;stroke-dasharray:none;stroke-opacity:1" />
  <rect
     style="opacity:1;fill:none;fill-opacity:1;stroke:#000000;stroke-width:111.1111145;stroke-linecap:square;stroke-miterlimit:4;stroke-dasharray:none;stroke-opacity:1"
     id="rect13892"
     width="2048.1741"
     height="3175.6516"
     x="50497.605"
     y="41671.191" />
  <rect
     y="41671.191"
     x="53445.82"
     height="3175.6516"
     width="2048.1741"
     id="rect13894"
     style="opacity:1;fill:#000000;fill-opacity:1;stroke:#000000;stroke-width:111.1111145;stroke-linecap:square;stroke-miterlimit:4;stroke-dasharray:none;stroke-opacity:1" />
  <rect
     style="opacity:1;fill:#000000;fill-opacity:1;stroke:#000000;stroke-width:111.1111145;stroke-linecap:square;stroke-miterlimit:4;stroke-dasharray:none;stroke-opacity:1"
     id="rect13896"
     width="2048.1741"
     height="3175.6516"
     x="56394.031"
     y="41671.191" />
  <rect
     style="opacity:1;fill:none;fill-opacity:1;stroke:#000000;stroke-width:111.1111145;stroke-linecap:square;stroke-miterlimit:4;stroke-dasharray:none;stroke-opacity:1"
     id="rect13900"
     width="2048.1741"
     height="3175.6516"
     x="23963.68"
     y="48337.855" />
  <rect
     y="48337.855"
     x="26911.893"
     height="3175.6516"
     width="2048.1741"
     id="rect13902"
     style="opacity:1;fill:none;fill-opacity:1;stroke:#000000;stroke-width:111.1111145;stroke-linecap:square;stroke-miterlimit:4;stroke-dasharray:none;stroke-opacity:1" />
  <rect
     style="opacity:1;fill:#000000;fill-opacity:1;stroke:#000000;stroke-width:111.1111145;stroke-linecap:square;stroke-miterlimit:4;stroke-dasharray:none;stroke-opacity:1"
     id="rect13904"
     width="2048.1741"
     height="3175.6516"
     x="29839.469"
     y="48337.855" />
  <rect
     y="48337.855"
     x="32808.32"
     height="3175.6516"
     width="2048.1741"
     id="rect13906"
     style="opacity:1;fill:none;fill-opacity:1;stroke:#000000;stroke-width:111.1111145;stroke-linecap:square;stroke-miterlimit:4;stroke-dasharray:none;stroke-opacity:1" />
  <rect
     style="opacity:1;fill:#000000;fill-opacity:1;stroke:#000000;stroke-width:111.1111145;stroke-linecap:square;stroke-miterlimit:4;stroke-dasharray:none;stroke-opacity:1"
     id="rect13908"
     width="2048.1741"
     height="3175.6516"
     x="35756.535"
     y="48337.855" />
  <rect
     y="48337.855"
     x="38704.75"
     height="3175.6516"
     width="2048.1741"
     id="rect13910"
     style="opacity:1;fill:none;fill-opacity:1;stroke:#000000;stroke-width:111.1111145;stroke-linecap:square;stroke-miterlimit:4;stroke-dasharray:none;stroke-opacity:1" />
  <rect
     style="opacity:1;fill:#000000;fill-opacity:1;stroke:#000000;stroke-width:111.1111145;stroke-linecap:square;stroke-miterlimit:4;stroke-dasharray:none;stroke-opacity:1"
     id="rect13912"
     width="2048.1741"
     height="3175.6516"
     x="41652.961"
     y="48337.855" />
  <rect
     y="48337.855"
     x="44621.812"
     height="3175.6516"
     width="2048.1741"
     id="rect13914"
     style="opacity:1;fill:none;fill-opacity:1;stroke:#000000;stroke-width:111.1111145;stroke-linecap:square;stroke-miterlimit:4;stroke-dasharray:none;stroke-opacity:1" />
  <rect
     style="opacity:1;fill:none;fill-opacity:1;stroke:#000000;stroke-width:111.1111145;stroke-linecap:square;stroke-miterlimit:4;stroke-dasharray:none;stroke-opacity:1"
     id="rect13916"
     width="2048.1741"
     height="3175.6516"
     x="47549.391"
     y="48337.855" />
  <rect
     y="48337.855"
     x="50497.605"
     height="3175.6516"
     width="2048.1741"
     id="rect13918"
     style="opacity:1;fill:#000000;fill-opacity:1;stroke:#000000;stroke-width:111.1111145;stroke-linecap:square;stroke-miterlimit:4;stroke-dasharray:none;stroke-opacity:1" />
  <rect
     style="opacity:1;fill:#000000;fill-opacity:1;stroke:#000000;stroke-width:111.1111145;stroke-linecap:square;stroke-miterlimit:4;stroke-dasharray:none;stroke-opacity:1"
     id="rect13920"
     width="2048.1741"
     height="3175.6516"
     x="53445.82"
     y="48337.855" />
  <rect
     y="48337.855"
     x="56394.031"
     height="3175.6516"
     width="2048.1741"
     id="rect13922"
     style="opacity:1;fill:#000000;fill-opacity:1;stroke:#000000;stroke-width:111.1111145;stroke-linecap:square;stroke-miterlimit:4;stroke-dasharray:none;stroke-opacity:1" />
  <rect
     y="55004.523"
     x="23963.68"
     height="3175.6516"
     width="2048.1741"
     id="rect13926"
     style="opacity:1;fill:none;fill-opacity:1;stroke:#000000;stroke-width:111.1111145;stroke-linecap:square;stroke-miterlimit:4;stroke-dasharray:none;stroke-opacity:1" />
  <rect
     style="opacity:1;fill:none;fill-opacity:1;stroke:#000000;stroke-width:111.1111145;stroke-linecap:square;stroke-miterlimit:4;stroke-dasharray:none;stroke-opacity:1"
     id="rect13928"
     width="2048.1741"
     height="3175.6516"
     x="26911.893"
     y="55004.523" />
  <rect
     y="55004.523"
     x="29839.469"
     height="3175.6516"
     width="2048.1741"
     id="rect13930"
     style="opacity:1;fill:#000000;fill-opacity:1;stroke:#000000;stroke-width:111.1111145;stroke-linecap:square;stroke-miterlimit:4;stroke-dasharray:none;stroke-opacity:1" />
  <rect
     style="opacity:1;fill:#000000;fill-opacity:1;stroke:#000000;stroke-width:111.1111145;stroke-linecap:square;stroke-miterlimit:4;stroke-dasharray:none;stroke-opacity:1"
     id="rect13932"
     width="2048.1741"
     height="3175.6516"
     x="32808.32"
     y="55004.523" />
  <rect
     y="55004.523"
     x="35756.535"
     height="3175.6516"
     width="2048.1741"
     id="rect13934"
     style="opacity:1;fill:none;fill-opacity:1;stroke:#000000;stroke-width:111.1111145;stroke-linecap:square;stroke-miterlimit:4;stroke-dasharray:none;stroke-opacity:1" />
  <rect
     style="opacity:1;fill:none;fill-opacity:1;stroke:#000000;stroke-width:111.1111145;stroke-linecap:square;stroke-miterlimit:4;stroke-dasharray:none;stroke-opacity:1"
     id="rect13936"
     width="2048.1741"
     height="3175.6516"
     x="38704.75"
     y="55004.523" />
  <rect
     y="55004.523"
     x="41652.961"
     height="3175.6516"
     width="2048.1741"
     id="rect13938"
     style="opacity:1;fill:none;fill-opacity:1;stroke:#000000;stroke-width:111.1111145;stroke-linecap:square;stroke-miterlimit:4;stroke-dasharray:none;stroke-opacity:1" />
  <rect
     style="opacity:1;fill:#000000;fill-opacity:1;stroke:#000000;stroke-width:111.1111145;stroke-linecap:square;stroke-miterlimit:4;stroke-dasharray:none;stroke-opacity:1"
     id="rect13940"
     width="2048.1741"
     height="3175.6516"
     x="44621.812"
     y="55004.523" />
  <rect
     y="55004.523"
     x="47549.391"
     height="3175.6516"
     width="2048.1741"
     id="rect13942"
     style="opacity:1;fill:#000000;fill-opacity:1;stroke:#000000;stroke-width:111.1111145;stroke-linecap:square;stroke-miterlimit:4;stroke-dasharray:none;stroke-opacity:1" />
  <rect
     style="opacity:1;fill:none;fill-opacity:1;stroke:#000000;stroke-width:111.1111145;stroke-linecap:square;stroke-miterlimit:4;stroke-dasharray:none;stroke-opacity:1"
     id="rect13944"
     width="2048.1741"
     height="3175.6516"
     x="50497.605"
     y="55004.523" />
  <rect
     y="55004.523"
     x="53445.82"
     height="3175.6516"
     width="2048.1741"
     id="rect13946"
     style="opacity:1;fill:#000000;fill-opacity:1;stroke:#000000;stroke-width:111.1111145;stroke-linecap:square;stroke-miterlimit:4;stroke-dasharray:none;stroke-opacity:1" />
  <rect
     style="opacity:1;fill:#000000;fill-opacity:1;stroke:#000000;stroke-width:111.1111145;stroke-linecap:square;stroke-miterlimit:4;stroke-dasharray:none;stroke-opacity:1"
     id="rect13948"
     width="2048.1741"
     height="3175.6516"
     x="56394.031"
     y="55004.523" />
  <rect
     style="opacity:1;fill:none;fill-opacity:1;stroke:#000000;stroke-width:111.1111145;stroke-linecap:square;stroke-miterlimit:4;stroke-dasharray:none;stroke-opacity:1"
     id="rect13952"
     width="2048.1741"
     height="3175.6516"
     x="23963.68"
     y="61671.195" />
  <rect
     y="61671.195"
     x="26911.893"
     height="3175.6516"
     width="2048.1741"
     id="rect13954"
     style="opacity:1;fill:none;fill-opacity:1;stroke:#000000;stroke-width:111.1111145;stroke-linecap:square;stroke-miterlimit:4;stroke-dasharray:none;stroke-opacity:1" />
  <rect
     style="opacity:1;fill:#000000;fill-opacity:1;stroke:#000000;stroke-width:111.1111145;stroke-linecap:square;stroke-miterlimit:4;stroke-dasharray:none;stroke-opacity:1"
     id="rect13956"
     width="2048.1741"
     height="3175.6516"
     x="29839.469"
     y="61671.195" />
  <rect
     y="61671.195"
     x="32808.32"
     height="3175.6516"
     width="2048.1741"
     id="rect13958"
     style="opacity:1;fill:none;fill-opacity:1;stroke:#000000;stroke-width:111.1111145;stroke-linecap:square;stroke-miterlimit:4;stroke-dasharray:none;stroke-opacity:1" />
  <rect
     style="opacity:1;fill:none;fill-opacity:1;stroke:#000000;stroke-width:111.1111145;stroke-linecap:square;stroke-miterlimit:4;stroke-dasharray:none;stroke-opacity:1"
     id="rect13960"
     width="2048.1741"
     height="3175.6516"
     x="35756.535"
     y="61671.195" />
  <rect
     y="61671.195"
     x="38704.75"
     height="3175.6516"
     width="2048.1741"
     id="rect13962"
     style="opacity:1;fill:none;fill-opacity:1;stroke:#000000;stroke-width:111.1111145;stroke-linecap:square;stroke-miterlimit:4;stroke-dasharray:none;stroke-opacity:1" />
  <rect
     style="opacity:1;fill:#000000;fill-opacity:1;stroke:#000000;stroke-width:111.1111145;stroke-linecap:square;stroke-miterlimit:4;stroke-dasharray:none;stroke-opacity:1"
     id="rect13964"
     width="2048.1741"
     height="3175.6516"
     x="41652.961"
     y="61671.195" />
  <rect
     y="61671.195"
     x="44621.812"
     height="3175.6516"
     width="2048.1741"
     id="rect13966"
     style="opacity:1;fill:none;fill-opacity:1;stroke:#000000;stroke-width:111.1111145;stroke-linecap:square;stroke-miterlimit:4;stroke-dasharray:none;stroke-opacity:1" />
  <rect
     style="opacity:1;fill:none;fill-opacity:1;stroke:#000000;stroke-width:111.1111145;stroke-linecap:square;stroke-miterlimit:4;stroke-dasharray:none;stroke-opacity:1"
     id="rect13968"
     width="2048.1741"
     height="3175.6516"
     x="47549.391"
     y="61671.195" />
  <rect
     y="61671.195"
     x="50497.605"
     height="3175.6516"
     width="2048.1741"
     id="rect13970"
     style="opacity:1;fill:#000000;fill-opacity:1;stroke:#000000;stroke-width:111.1111145;stroke-linecap:square;stroke-miterlimit:4;stroke-dasharray:none;stroke-opacity:1" />
  <rect
     style="opacity:1;fill:#000000;fill-opacity:1;stroke:#000000;stroke-width:111.1111145;stroke-linecap:square;stroke-miterlimit:4;stroke-dasharray:none;stroke-opacity:1"
     id="rect13972"
     width="2048.1741"
     height="3175.6516"
     x="53445.82"
     y="61671.195" />
  <rect
     y="61671.195"
     x="56394.031"
     height="3175.6516"
     width="2048.1741"
     id="rect13974"
     style="opacity:1;fill:#000000;fill-opacity:1;stroke:#000000;stroke-width:111.1111145;stroke-linecap:square;stroke-miterlimit:4;stroke-dasharray:none;stroke-opacity:1" />
  <rect
     y="68337.93"
     x="23963.68"
     height="3175.6516"
     width="2048.1741"
     id="rect13978"
     style="opacity:1;fill:none;fill-opacity:1;stroke:#000000;stroke-width:111.1111145;stroke-linecap:square;stroke-miterlimit:4;stroke-dasharray:none;stroke-opacity:1" />
  <rect
     style="opacity:1;fill:#000000;fill-opacity:1;stroke:#000000;stroke-width:111.1111145;stroke-linecap:square;stroke-miterlimit:4;stroke-dasharray:none;stroke-opacity:1"
     id="rect13980"
     width="2048.1741"
     height="3175.6516"
     x="26911.893"
     y="68337.93" />
  <rect
     y="68337.93"
     x="29839.469"
     height="3175.6516"
     width="2048.1741"
     id="rect13982"
     style="opacity:1;fill:none;fill-opacity:1;stroke:#000000;stroke-width:111.1111145;stroke-linecap:square;stroke-miterlimit:4;stroke-dasharray:none;stroke-opacity:1" />
  <rect
     style="opacity:1;fill:none;fill-opacity:1;stroke:#000000;stroke-width:111.1111145;stroke-linecap:square;stroke-miterlimit:4;stroke-dasharray:none;stroke-opacity:1"
     id="rect13984"
     width="2048.1741"
     height="3175.6516"
     x="32808.32"
     y="68337.93" />
  <rect
     y="68337.93"
     x="35756.535"
     height="3175.6516"
     width="2048.1741"
     id="rect13986"
     style="opacity:1;fill:#000000;fill-opacity:1;stroke:#000000;stroke-width:111.1111145;stroke-linecap:square;stroke-miterlimit:4;stroke-dasharray:none;stroke-opacity:1" />
  <rect
     style="opacity:1;fill:none;fill-opacity:1;stroke:#000000;stroke-width:111.1111145;stroke-linecap:square;stroke-miterlimit:4;stroke-dasharray:none;stroke-opacity:1"
     id="rect13988"
     width="2048.1741"
     height="3175.6516"
     x="38704.75"
     y="68337.93" />
  <rect
     y="68337.93"
     x="41652.961"
     height="3175.6516"
     width="2048.1741"
     id="rect13990"
     style="opacity:1;fill:#000000;fill-opacity:1;stroke:#000000;stroke-width:111.1111145;stroke-linecap:square;stroke-miterlimit:4;stroke-dasharray:none;stroke-opacity:1" />
  <rect
     style="opacity:1;fill:none;fill-opacity:1;stroke:#000000;stroke-width:111.1111145;stroke-linecap:square;stroke-miterlimit:4;stroke-dasharray:none;stroke-opacity:1"
     id="rect13992"
     width="2048.1741"
     height="3175.6516"
     x="44621.812"
     y="68337.93" />
  <rect
     y="68337.93"
     x="47549.391"
     height="3175.6516"
     width="2048.1741"
     id="rect13994"
     style="opacity:1;fill:#000000;fill-opacity:1;stroke:#000000;stroke-width:111.1111145;stroke-linecap:square;stroke-miterlimit:4;stroke-dasharray:none;stroke-opacity:1" />
  <rect
     style="opacity:1;fill:none;fill-opacity:1;stroke:#000000;stroke-width:111.1111145;stroke-linecap:square;stroke-miterlimit:4;stroke-dasharray:none;stroke-opacity:1"
     id="rect13996"
     width="2048.1741"
     height="3175.6516"
     x="50497.605"
     y="68337.93" />
  <rect
     y="68337.93"
     x="53445.82"
     height="3175.6516"
     width="2048.1741"
     id="rect13998"
     style="opacity:1;fill:none;fill-opacity:1;stroke:#000000;stroke-width:111.1111145;stroke-linecap:square;stroke-miterlimit:4;stroke-dasharray:none;stroke-opacity:1" />
  <rect
     style="opacity:1;fill:#000000;fill-opacity:1;stroke:#000000;stroke-width:111.1111145;stroke-linecap:square;stroke-miterlimit:4;stroke-dasharray:none;stroke-opacity:1"
     id="rect14000"
     width="2048.1741"
     height="3175.6516"
     x="56394.031"
     y="68337.93" />
  <path
     style="fill:none;fill-rule:evenodd;stroke:#000000;stroke-width:126.59577942px;stroke-linecap:butt;stroke-linejoin:miter;stroke-opacity:1"
     d="m 32301.707,18850.91 0,75189.581"
     id="path14321"
     inkscape:connector-curvature="0" />
  <path
     inkscape:connector-curvature="0"
     id="path14323"
     d="m 38219.081,18850.91 0,75189.581"
     style="fill:none;fill-rule:evenodd;stroke:#000000;stroke-width:379.78729248;stroke-linecap:butt;stroke-linejoin:miter;stroke-miterlimit:4;stroke-dasharray:none;stroke-opacity:1" />
  <path
     style="fill:none;fill-rule:evenodd;stroke:#000000;stroke-width:126.59577942px;stroke-linecap:butt;stroke-linejoin:miter;stroke-opacity:1"
     d="m 47107.969,18850.91 0,75189.581"
     id="path14325"
     inkscape:connector-curvature="0" />
  <path
     inkscape:connector-curvature="0"
     id="path14327"
     d="m 52942.715,18850.91 0,75189.581"
     style="fill:none;fill-rule:evenodd;stroke:#000000;stroke-width:126.59577942px;stroke-linecap:butt;stroke-linejoin:miter;stroke-opacity:1" />
  <path
     style="fill:none;fill-rule:evenodd;stroke:#000000;stroke-width:126.59577942px;stroke-linecap:butt;stroke-linejoin:miter;stroke-opacity:1"
     d="m 55996.855,18850.91 0,75189.581"
     id="path14329"
     inkscape:connector-curvature="0" />
  <text
     sodipodi:linespacing="125%"
     id="text14359"
     y="93303.992"
     x="24534.873"
     style="font-style:normal;font-variant:normal;font-weight:normal;font-stretch:normal;font-size:4444.44482422px;line-height:125%;font-family:Cicle;-inkscape-font-specification:Cicle;letter-spacing:0px;word-spacing:0px;fill:#000000;fill-opacity:1;stroke:none;stroke-width:1px;stroke-linecap:butt;stroke-linejoin:miter;stroke-opacity:1"
     xml:space="preserve"><tspan
       dx="0 0 0 0 0 0 0 0 0 0 0 0 0 0 0 0 0 0 206.56479 0 0 0 0 0 0 0 0 0 0 0 0 0 0 0 0 0 0 0 0 0 0 0 0 0 0 0 0 165.25183 0 0 0 0 0 0 0 0 0 0 0 0 0 0 0 0"
       style="font-size:1527.77783203px"
       y="93303.992"
       x="24534.873"
       id="tspan14361"
       sodipodi:role="line">    state         symbol      next state       write     L/R    #</tspan></text>
  <path
     sodipodi:type="star"
     style="opacity:1;fill:#d9d9d9;fill-opacity:1;stroke:#000000;stroke-width:50.06515121;stroke-linecap:round;stroke-miterlimit:3;stroke-dasharray:none;stroke-opacity:1"
     id="path14377"
     sodipodi:sides="3"
     sodipodi:cx="51765.078"
     sodipodi:cy="61445.84"
     sodipodi:r1="6545.8555"
     sodipodi:r2="3272.9277"
     sodipodi:arg1="0.52359878"
     sodipodi:arg2="1.5707963"
     inkscape:flatsided="true"
     inkscape:rounded="0"
     inkscape:randomized="0"
     d="m 57433.955,64718.768 -11337.754,0 5668.877,-9818.784 z"
     inkscape:transform-center-x="0.00061526439"
     inkscape:transform-center-y="3288.0159"
     transform="matrix(-2.669891,0,0,-0.46120121,179425.73,129826.51)" />
  <path
     transform="matrix(-2.669891,0,0,-0.46120121,179425.73,43382.086)"
     inkscape:transform-center-y="3288.0159"
     inkscape:transform-center-x="0.00061526439"
     d="m 57433.955,64718.768 -11337.754,0 5668.877,-9818.784 z"
     inkscape:randomized="0"
     inkscape:rounded="0"
     inkscape:flatsided="true"
     sodipodi:arg2="1.5707963"
     sodipodi:arg1="0.52359878"
     sodipodi:r2="3272.9277"
     sodipodi:r1="6545.8555"
     sodipodi:cy="61445.84"
     sodipodi:cx="51765.078"
     sodipodi:sides="3"
     id="path14381"
     style="opacity:1;fill:#d9d9d9;fill-opacity:1;stroke:#000000;stroke-width:50.06515121;stroke-linecap:round;stroke-miterlimit:3;stroke-dasharray:none;stroke-opacity:1"
     sodipodi:type="star" />
  <text
     sodipodi:linespacing="125%"
     id="text5260"
     y="11684.627"
     x="23759.172"
     style="font-style:normal;font-variant:normal;font-weight:normal;font-stretch:normal;font-size:7918.04589844px;line-height:125%;font-family:Cicle;-inkscape-font-specification:Cicle;letter-spacing:0px;word-spacing:0px;fill:#000000;fill-opacity:1;stroke:none;stroke-width:1px;stroke-linecap:butt;stroke-linejoin:miter;stroke-opacity:1"
     xml:space="preserve"><tspan
       style="font-size:2721.828125px"
       y="11684.627"
       x="23759.172"
       id="tspan5262"
       sodipodi:role="line">busy beaver (3 state)</tspan></text>
  <path
     inkscape:connector-curvature="0"
     id="path4856"
     d="m 58516.078,26700.184 -34618.689,0"
     style="fill:none;fill-rule:evenodd;stroke:#000000;stroke-width:85.9005127px;stroke-linecap:butt;stroke-linejoin:miter;stroke-opacity:1" />
  <rect
     style="opacity:1;fill:none;fill-opacity:1;stroke:#000000;stroke-width:111.1111145;stroke-linecap:square;stroke-miterlimit:4;stroke-dasharray:none;stroke-opacity:1"
     id="rect4862"
     width="2048.1741"
     height="3175.6516"
     x="23963.68"
     y="75004.586" />
  <rect
     y="75004.586"
     x="26911.893"
     height="3175.6516"
     width="2048.1741"
     id="rect4864"
     style="opacity:1;fill:#000000;fill-opacity:1;stroke:#000000;stroke-width:111.1111145;stroke-linecap:square;stroke-miterlimit:4;stroke-dasharray:none;stroke-opacity:1" />
  <rect
     style="opacity:1;fill:none;fill-opacity:1;stroke:#000000;stroke-width:111.1111145;stroke-linecap:square;stroke-miterlimit:4;stroke-dasharray:none;stroke-opacity:1"
     id="rect4866"
     width="2048.1741"
     height="3175.6516"
     x="29839.469"
     y="75004.586" />
  <rect
     y="75004.586"
     x="32808.32"
     height="3175.6516"
     width="2048.1741"
     id="rect4868"
     style="opacity:1;fill:#000000;fill-opacity:1;stroke:#000000;stroke-width:111.1111145;stroke-linecap:square;stroke-miterlimit:4;stroke-dasharray:none;stroke-opacity:1" />
  <rect
     style="opacity:1;fill:none;fill-opacity:1;stroke:#000000;stroke-width:111.1111145;stroke-linecap:square;stroke-miterlimit:4;stroke-dasharray:none;stroke-opacity:1"
     id="rect4870"
     width="2048.1741"
     height="3175.6516"
     x="35756.535"
     y="75004.586" />
  <rect
     y="75004.586"
     x="38704.75"
     height="3175.6516"
     width="2048.1741"
     id="rect4872"
     style="opacity:1;fill:none;fill-opacity:1;stroke:#000000;stroke-width:111.1111145;stroke-linecap:square;stroke-miterlimit:4;stroke-dasharray:none;stroke-opacity:1" />
  <rect
     style="opacity:1;fill:none;fill-opacity:1;stroke:#000000;stroke-width:111.1111145;stroke-linecap:square;stroke-miterlimit:4;stroke-dasharray:none;stroke-opacity:1"
     id="rect4874"
     width="2048.1741"
     height="3175.6516"
     x="41652.961"
     y="75004.586" />
  <rect
     y="75004.586"
     x="44621.812"
     height="3175.6516"
     width="2048.1741"
     id="rect4876"
     style="opacity:1;fill:none;fill-opacity:1;stroke:#000000;stroke-width:111.1111145;stroke-linecap:square;stroke-miterlimit:4;stroke-dasharray:none;stroke-opacity:1" />
  <rect
     style="opacity:1;fill:#000000;fill-opacity:1;stroke:#000000;stroke-width:111.1111145;stroke-linecap:square;stroke-miterlimit:4;stroke-dasharray:none;stroke-opacity:1"
     id="rect4878"
     width="2048.1741"
     height="3175.6516"
     x="47549.391"
     y="75004.586" />
  <rect
     y="75004.586"
     x="50497.605"
     height="3175.6516"
     width="2048.1741"
     id="rect4880"
     style="opacity:1;fill:none;fill-opacity:1;stroke:#000000;stroke-width:111.1111145;stroke-linecap:square;stroke-miterlimit:4;stroke-dasharray:none;stroke-opacity:1" />
  <rect
     style="opacity:1;fill:none;fill-opacity:1;stroke:#000000;stroke-width:111.1111145;stroke-linecap:square;stroke-miterlimit:4;stroke-dasharray:none;stroke-opacity:1"
     id="rect4882"
     width="2048.1741"
     height="3175.6516"
     x="53445.82"
     y="75004.586" />
  <rect
     y="75004.586"
     x="56394.031"
     height="3175.6516"
     width="2048.1741"
     id="rect4884"
     style="opacity:1;fill:#000000;fill-opacity:1;stroke:#000000;stroke-width:111.1111145;stroke-linecap:square;stroke-miterlimit:4;stroke-dasharray:none;stroke-opacity:1" />
  <rect
     y="81671.242"
     x="23963.68"
     height="3175.6516"
     width="2048.1741"
     id="rect4886"
     style="opacity:1;fill:none;fill-opacity:1;stroke:#000000;stroke-width:111.1111145;stroke-linecap:square;stroke-miterlimit:4;stroke-dasharray:none;stroke-opacity:1" />
  <rect
     style="opacity:1;fill:#000000;fill-opacity:1;stroke:#000000;stroke-width:111.1111145;stroke-linecap:square;stroke-miterlimit:4;stroke-dasharray:none;stroke-opacity:1"
     id="rect4888"
     width="2048.1741"
     height="3175.6516"
     x="26911.893"
     y="81671.242" />
  <rect
     y="81671.242"
     x="29839.469"
     height="3175.6516"
     width="2048.1741"
     id="rect4890"
     style="opacity:1;fill:none;fill-opacity:1;stroke:#000000;stroke-width:111.1111145;stroke-linecap:square;stroke-miterlimit:4;stroke-dasharray:none;stroke-opacity:1" />
  <rect
     style="opacity:1;fill:none;fill-opacity:1;stroke:#000000;stroke-width:111.1111145;stroke-linecap:square;stroke-miterlimit:4;stroke-dasharray:none;stroke-opacity:1"
     id="rect4892"
     width="2048.1741"
     height="3175.6516"
     x="32808.32"
     y="81671.242" />
  <rect
     y="81671.242"
     x="35756.535"
     height="3175.6516"
     width="2048.1741"
     id="rect4894"
     style="opacity:1;fill:none;fill-opacity:1;stroke:#000000;stroke-width:111.1111145;stroke-linecap:square;stroke-miterlimit:4;stroke-dasharray:none;stroke-opacity:1" />
  <rect
     style="opacity:1;fill:none;fill-opacity:1;stroke:#000000;stroke-width:111.1111145;stroke-linecap:square;stroke-miterlimit:4;stroke-dasharray:none;stroke-opacity:1"
     id="rect4896"
     width="2048.1741"
     height="3175.6516"
     x="38704.75"
     y="81671.242" />
  <rect
     y="81671.242"
     x="41652.961"
     height="3175.6516"
     width="2048.1741"
     id="rect4898"
     style="opacity:1;fill:#000000;fill-opacity:1;stroke:#000000;stroke-width:111.1111145;stroke-linecap:square;stroke-miterlimit:4;stroke-dasharray:none;stroke-opacity:1" />
  <rect
     style="opacity:1;fill:none;fill-opacity:1;stroke:#000000;stroke-width:111.1111145;stroke-linecap:square;stroke-miterlimit:4;stroke-dasharray:none;stroke-opacity:1"
     id="rect4900"
     width="2048.1741"
     height="3175.6516"
     x="44621.812"
     y="81671.242" />
  <rect
     y="81671.242"
     x="47549.391"
     height="3175.6516"
     width="2048.1741"
     id="rect4902"
     style="opacity:1;fill:#000000;fill-opacity:1;stroke:#000000;stroke-width:111.1111145;stroke-linecap:square;stroke-miterlimit:4;stroke-dasharray:none;stroke-opacity:1" />
  <rect
     style="opacity:1;fill:none;fill-opacity:1;stroke:#000000;stroke-width:111.1111145;stroke-linecap:square;stroke-miterlimit:4;stroke-dasharray:none;stroke-opacity:1"
     id="rect4904"
     width="2048.1741"
     height="3175.6516"
     x="50497.605"
     y="81671.242" />
  <rect
     y="81671.242"
     x="53445.82"
     height="3175.6516"
     width="2048.1741"
     id="rect4906"
     style="opacity:1;fill:none;fill-opacity:1;stroke:#000000;stroke-width:111.1111145;stroke-linecap:square;stroke-miterlimit:4;stroke-dasharray:none;stroke-opacity:1" />
  <rect
     style="opacity:1;fill:#000000;fill-opacity:1;stroke:#000000;stroke-width:111.1111145;stroke-linecap:square;stroke-miterlimit:4;stroke-dasharray:none;stroke-opacity:1"
     id="rect4908"
     width="2048.1741"
     height="3175.6516"
     x="56394.031"
     y="81671.242" />
  <rect
     style="opacity:1;fill:none;fill-opacity:1;stroke:#000000;stroke-width:111.1111145;stroke-linecap:square;stroke-miterlimit:4;stroke-dasharray:none;stroke-opacity:1"
     id="rect4910"
     width="2048.1741"
     height="3175.6516"
     x="23963.68"
     y="88337.898" />
  <rect
     y="88337.898"
     x="26911.893"
     height="3175.6516"
     width="2048.1741"
     id="rect4912"
     style="opacity:1;fill:none;fill-opacity:1;stroke:#000000;stroke-width:111.1111145;stroke-linecap:square;stroke-miterlimit:4;stroke-dasharray:none;stroke-opacity:1" />
  <rect
     style="opacity:1;fill:none;fill-opacity:1;stroke:#000000;stroke-width:111.1111145;stroke-linecap:square;stroke-miterlimit:4;stroke-dasharray:none;stroke-opacity:1"
     id="rect4914"
     width="2048.1741"
     height="3175.6516"
     x="29839.469"
     y="88337.898" />
  <rect
     y="88337.898"
     x="32808.32"
     height="3175.6516"
     width="2048.1741"
     id="rect4916"
     style="opacity:1;fill:#000000;fill-opacity:1;stroke:#000000;stroke-width:111.1111145;stroke-linecap:square;stroke-miterlimit:4;stroke-dasharray:none;stroke-opacity:1" />
  <rect
     style="opacity:1;fill:#000000;fill-opacity:1;stroke:#000000;stroke-width:111.1111145;stroke-linecap:square;stroke-miterlimit:4;stroke-dasharray:none;stroke-opacity:1"
     id="rect4918"
     width="2048.1741"
     height="3175.6516"
     x="35756.535"
     y="88337.898" />
  <rect
     y="88337.898"
     x="38704.75"
     height="3175.6516"
     width="2048.1741"
     id="rect4920"
     style="opacity:1;fill:none;fill-opacity:1;stroke:#000000;stroke-width:111.1111145;stroke-linecap:square;stroke-miterlimit:4;stroke-dasharray:none;stroke-opacity:1" />
  <rect
     style="opacity:1;fill:none;fill-opacity:1;stroke:#000000;stroke-width:111.1111145;stroke-linecap:square;stroke-miterlimit:4;stroke-dasharray:none;stroke-opacity:1"
     id="rect4922"
     width="2048.1741"
     height="3175.6516"
     x="41652.961"
     y="88337.898" />
  <rect
     y="88337.898"
     x="44621.812"
     height="3175.6516"
     width="2048.1741"
     id="rect4924"
     style="opacity:1;fill:none;fill-opacity:1;stroke:#000000;stroke-width:111.1111145;stroke-linecap:square;stroke-miterlimit:4;stroke-dasharray:none;stroke-opacity:1" />
  <rect
     style="opacity:1;fill:#000000;fill-opacity:1;stroke:#000000;stroke-width:111.1111145;stroke-linecap:square;stroke-miterlimit:4;stroke-dasharray:none;stroke-opacity:1"
     id="rect4926"
     width="2048.1741"
     height="3175.6516"
     x="47549.391"
     y="88337.898" />
  <rect
     y="88337.898"
     x="50497.605"
     height="3175.6516"
     width="2048.1741"
     id="rect4928"
     style="opacity:1;fill:#000000;fill-opacity:1;stroke:#000000;stroke-width:111.1111145;stroke-linecap:square;stroke-miterlimit:4;stroke-dasharray:none;stroke-opacity:1" />
  <rect
     style="opacity:1;fill:none;fill-opacity:1;stroke:#000000;stroke-width:111.1111145;stroke-linecap:square;stroke-miterlimit:4;stroke-dasharray:none;stroke-opacity:1"
     id="rect4930"
     width="2048.1741"
     height="3175.6516"
     x="53445.82"
     y="88337.898" />
  <rect
     y="88337.898"
     x="56394.031"
     height="3175.6516"
     width="2048.1741"
     id="rect4932"
     style="opacity:1;fill:#000000;fill-opacity:1;stroke:#000000;stroke-width:111.1111145;stroke-linecap:square;stroke-miterlimit:4;stroke-dasharray:none;stroke-opacity:1" />
  <path
     style="fill:none;fill-rule:evenodd;stroke:#000000;stroke-width:85.9005127px;stroke-linecap:butt;stroke-linejoin:miter;stroke-opacity:1"
     d="m 58516.078,86700.178 -34618.689,0"
     id="path4958"
     inkscape:connector-curvature="0" />
</svg>
