EESchema Schematic File Version 2
LIBS:power
LIBS:device
LIBS:transistors
LIBS:conn
LIBS:linear
LIBS:regul
LIBS:74xx
LIBS:cmos4000
LIBS:adc-dac
LIBS:memory
LIBS:xilinx
LIBS:microcontrollers
LIBS:dsp
LIBS:microchip
LIBS:analog_switches
LIBS:motorola
LIBS:texas
LIBS:intel
LIBS:audio
LIBS:interface
LIBS:digital-audio
LIBS:philips
LIBS:display
LIBS:cypress
LIBS:siliconi
LIBS:opto
LIBS:atmel
LIBS:contrib
LIBS:valves
LIBS:tape_pcb-cache
EELAYER 25 0
EELAYER END
$Descr A4 11693 8268
encoding utf-8
Sheet 1 1
Title ""
Date ""
Rev ""
Comp ""
Comment1 ""
Comment2 ""
Comment3 ""
Comment4 ""
$EndDescr
$Comp
L 74LS165 U1
U 1 1 5772650B
P 5900 3200
F 0 "U1" H 6050 3150 50  0000 C CNN
F 1 "74LS165" H 6050 2950 50  0000 C CNN
F 2 "SMD_Packages:SO-16-N" H 5900 3200 50  0001 C CNN
F 3 "" H 5900 3200 50  0000 C CNN
	1    5900 3200
	1    0    0    -1  
$EndComp
$Comp
L GND #PWR01
U 1 1 57726591
P 5200 3950
F 0 "#PWR01" H 5200 3700 50  0001 C CNN
F 1 "GND" H 5200 3800 50  0000 C CNN
F 2 "" H 5200 3950 50  0000 C CNN
F 3 "" H 5200 3950 50  0000 C CNN
	1    5200 3950
	1    0    0    -1  
$EndComp
$Comp
L VCC #PWR02
U 1 1 57726634
P 8450 2150
F 0 "#PWR02" H 8450 2000 50  0001 C CNN
F 1 "VCC" H 8450 2300 50  0000 C CNN
F 2 "" H 8450 2150 50  0000 C CNN
F 3 "" H 8450 2150 50  0000 C CNN
	1    8450 2150
	1    0    0    -1  
$EndComp
$Comp
L CONN_01X01 P2
U 1 1 5772666B
P 4050 2700
F 0 "P2" H 4050 2800 50  0000 C CNN
F 1 "CONN_01X01" V 4150 2700 50  0000 C CNN
F 2 "footprints:pad6mm" H 4050 2700 50  0001 C CNN
F 3 "" H 4050 2700 50  0000 C CNN
	1    4050 2700
	-1   0    0    1   
$EndComp
$Comp
L CONN_01X01 P3
U 1 1 57726746
P 4050 2800
F 0 "P3" H 4050 2900 50  0000 C CNN
F 1 "CONN_01X01" V 4150 2800 50  0000 C CNN
F 2 "footprints:pad6mm" H 4050 2800 50  0001 C CNN
F 3 "" H 4050 2800 50  0000 C CNN
	1    4050 2800
	-1   0    0    1   
$EndComp
$Comp
L CONN_01X01 P4
U 1 1 577267C8
P 4050 2900
F 0 "P4" H 4050 3000 50  0000 C CNN
F 1 "CONN_01X01" V 4150 2900 50  0000 C CNN
F 2 "footprints:pad6mm" H 4050 2900 50  0001 C CNN
F 3 "" H 4050 2900 50  0000 C CNN
	1    4050 2900
	-1   0    0    1   
$EndComp
$Comp
L CONN_01X01 P5
U 1 1 577267ED
P 4050 3000
F 0 "P5" H 4050 3100 50  0000 C CNN
F 1 "CONN_01X01" V 4150 3000 50  0000 C CNN
F 2 "footprints:pad6mm" H 4050 3000 50  0001 C CNN
F 3 "" H 4050 3000 50  0000 C CNN
	1    4050 3000
	-1   0    0    1   
$EndComp
$Comp
L CONN_01X01 P6
U 1 1 57726819
P 4050 3100
F 0 "P6" H 4050 3200 50  0000 C CNN
F 1 "CONN_01X01" V 4150 3100 50  0000 C CNN
F 2 "footprints:pad6mm" H 4050 3100 50  0001 C CNN
F 3 "" H 4050 3100 50  0000 C CNN
	1    4050 3100
	-1   0    0    1   
$EndComp
$Comp
L CONN_01X01 P7
U 1 1 57726844
P 4050 3200
F 0 "P7" H 4050 3300 50  0000 C CNN
F 1 "CONN_01X01" V 4150 3200 50  0000 C CNN
F 2 "footprints:pad6mm" H 4050 3200 50  0001 C CNN
F 3 "" H 4050 3200 50  0000 C CNN
	1    4050 3200
	-1   0    0    1   
$EndComp
$Comp
L CONN_01X01 P8
U 1 1 57726872
P 4050 3300
F 0 "P8" H 4050 3400 50  0000 C CNN
F 1 "CONN_01X01" V 4150 3300 50  0000 C CNN
F 2 "footprints:pad6mm" H 4050 3300 50  0001 C CNN
F 3 "" H 4050 3300 50  0000 C CNN
	1    4050 3300
	-1   0    0    1   
$EndComp
$Comp
L CONN_01X01 P9
U 1 1 577268A3
P 4050 3400
F 0 "P9" H 4050 3500 50  0000 C CNN
F 1 "CONN_01X01" V 4150 3400 50  0000 C CNN
F 2 "footprints:pad6mm" H 4050 3400 50  0001 C CNN
F 3 "" H 4050 3400 50  0000 C CNN
	1    4050 3400
	-1   0    0    1   
$EndComp
$Comp
L R_Small R1
U 1 1 57726993
P 4300 2400
F 0 "R1" H 4330 2420 50  0000 L CNN
F 1 "R_Small" H 4330 2360 50  0000 L CNN
F 2 "Resistors_SMD:R_0805_HandSoldering" H 4300 2400 50  0001 C CNN
F 3 "" H 4300 2400 50  0000 C CNN
	1    4300 2400
	1    0    0    -1  
$EndComp
$Comp
L R_Small R2
U 1 1 577269F4
P 4400 2400
F 0 "R2" H 4430 2420 50  0000 L CNN
F 1 "R_Small" H 4430 2360 50  0000 L CNN
F 2 "Resistors_SMD:R_0805_HandSoldering" H 4400 2400 50  0001 C CNN
F 3 "" H 4400 2400 50  0000 C CNN
	1    4400 2400
	1    0    0    -1  
$EndComp
$Comp
L R_Small R3
U 1 1 57726A2A
P 4500 2400
F 0 "R3" H 4530 2420 50  0000 L CNN
F 1 "R_Small" H 4530 2360 50  0000 L CNN
F 2 "Resistors_SMD:R_0805_HandSoldering" H 4500 2400 50  0001 C CNN
F 3 "" H 4500 2400 50  0000 C CNN
	1    4500 2400
	1    0    0    -1  
$EndComp
$Comp
L R_Small R4
U 1 1 57726A63
P 4600 2400
F 0 "R4" H 4630 2420 50  0000 L CNN
F 1 "R_Small" H 4630 2360 50  0000 L CNN
F 2 "Resistors_SMD:R_0805_HandSoldering" H 4600 2400 50  0001 C CNN
F 3 "" H 4600 2400 50  0000 C CNN
	1    4600 2400
	1    0    0    -1  
$EndComp
$Comp
L R_Small R5
U 1 1 57726AA1
P 4700 2400
F 0 "R5" H 4730 2420 50  0000 L CNN
F 1 "R_Small" H 4730 2360 50  0000 L CNN
F 2 "Resistors_SMD:R_0805_HandSoldering" H 4700 2400 50  0001 C CNN
F 3 "" H 4700 2400 50  0000 C CNN
	1    4700 2400
	1    0    0    -1  
$EndComp
$Comp
L R_Small R6
U 1 1 57726AE0
P 4800 2400
F 0 "R6" H 4830 2420 50  0000 L CNN
F 1 "R_Small" H 4830 2360 50  0000 L CNN
F 2 "Resistors_SMD:R_0805_HandSoldering" H 4800 2400 50  0001 C CNN
F 3 "" H 4800 2400 50  0000 C CNN
	1    4800 2400
	1    0    0    -1  
$EndComp
$Comp
L R_Small R7
U 1 1 57726B22
P 4900 2400
F 0 "R7" H 4930 2420 50  0000 L CNN
F 1 "R_Small" H 4930 2360 50  0000 L CNN
F 2 "Resistors_SMD:R_0805_HandSoldering" H 4900 2400 50  0001 C CNN
F 3 "" H 4900 2400 50  0000 C CNN
	1    4900 2400
	1    0    0    -1  
$EndComp
$Comp
L R_Small R8
U 1 1 57726B67
P 5000 2400
F 0 "R8" H 5030 2420 50  0000 L CNN
F 1 "R_Small" H 5030 2360 50  0000 L CNN
F 2 "Resistors_SMD:R_0805_HandSoldering" H 5000 2400 50  0001 C CNN
F 3 "" H 5000 2400 50  0000 C CNN
	1    5000 2400
	1    0    0    -1  
$EndComp
$Comp
L VCC #PWR03
U 1 1 57726BAF
P 4300 2150
F 0 "#PWR03" H 4300 2000 50  0001 C CNN
F 1 "VCC" H 4300 2300 50  0000 C CNN
F 2 "" H 4300 2150 50  0000 C CNN
F 3 "" H 4300 2150 50  0000 C CNN
	1    4300 2150
	1    0    0    -1  
$EndComp
Wire Wire Line
	5200 3950 5200 3800
Wire Wire Line
	4250 2700 5200 2700
Wire Wire Line
	4250 2800 5200 2800
Wire Wire Line
	4250 2900 5200 2900
Wire Wire Line
	4250 3000 5200 3000
Wire Wire Line
	4250 3100 5200 3100
Wire Wire Line
	4250 3200 5200 3200
Wire Wire Line
	4250 3300 5200 3300
Wire Wire Line
	4250 3400 5200 3400
Wire Wire Line
	4300 2150 4300 2300
Wire Wire Line
	4400 2300 4400 2250
Wire Wire Line
	4300 2250 5000 2250
Connection ~ 4300 2250
Wire Wire Line
	4500 2250 4500 2300
Connection ~ 4400 2250
Wire Wire Line
	4600 2250 4600 2300
Connection ~ 4500 2250
Wire Wire Line
	4700 2250 4700 2300
Connection ~ 4600 2250
Wire Wire Line
	4800 2250 4800 2300
Connection ~ 4700 2250
Wire Wire Line
	4900 2250 4900 2300
Connection ~ 4800 2250
Wire Wire Line
	5000 2250 5000 2300
Connection ~ 4900 2250
Wire Wire Line
	4300 2500 4300 2700
Connection ~ 4300 2700
Wire Wire Line
	4400 2500 4400 2800
Connection ~ 4400 2800
Wire Wire Line
	4500 2500 4500 2900
Connection ~ 4500 2900
Wire Wire Line
	4600 2500 4600 3000
Connection ~ 4600 3000
Wire Wire Line
	4700 2500 4700 3100
Connection ~ 4700 3100
Wire Wire Line
	4800 2500 4800 3200
Connection ~ 4800 3200
Wire Wire Line
	4900 2500 4900 3300
Connection ~ 4900 3300
Wire Wire Line
	5000 2500 5000 3400
Connection ~ 5000 3400
$Comp
L CONN_01X05 P1
U 1 1 5772700E
P 2300 1300
F 0 "P1" H 2300 1600 50  0000 C CNN
F 1 "CONN_01X05" V 2400 1300 50  0000 C CNN
F 2 "Pin_Headers:Pin_Header_Straight_1x05" H 2300 1300 50  0001 C CNN
F 3 "" H 2300 1300 50  0000 C CNN
	1    2300 1300
	-1   0    0    1   
$EndComp
$Comp
L CONN_01X05 P10
U 1 1 5772710B
P 7550 1300
F 0 "P10" H 7550 1600 50  0000 C CNN
F 1 "CONN_01X05" V 7650 1300 50  0000 C CNN
F 2 "Pin_Headers:Pin_Header_Straight_1x05" H 7550 1300 50  0001 C CNN
F 3 "" H 7550 1300 50  0000 C CNN
	1    7550 1300
	1    0    0    -1  
$EndComp
$Comp
L VCC #PWR04
U 1 1 5772729B
P 7250 1050
F 0 "#PWR04" H 7250 900 50  0001 C CNN
F 1 "VCC" H 7250 1200 50  0000 C CNN
F 2 "" H 7250 1050 50  0000 C CNN
F 3 "" H 7250 1050 50  0000 C CNN
	1    7250 1050
	1    0    0    -1  
$EndComp
$Comp
L VCC #PWR05
U 1 1 57727334
P 2650 1050
F 0 "#PWR05" H 2650 900 50  0001 C CNN
F 1 "VCC" H 2650 1200 50  0000 C CNN
F 2 "" H 2650 1050 50  0000 C CNN
F 3 "" H 2650 1050 50  0000 C CNN
	1    2650 1050
	1    0    0    -1  
$EndComp
$Comp
L GND #PWR06
U 1 1 577273A7
P 2650 1550
F 0 "#PWR06" H 2650 1300 50  0001 C CNN
F 1 "GND" H 2650 1400 50  0000 C CNN
F 2 "" H 2650 1550 50  0000 C CNN
F 3 "" H 2650 1550 50  0000 C CNN
	1    2650 1550
	1    0    0    -1  
$EndComp
$Comp
L GND #PWR07
U 1 1 577273F4
P 7250 1550
F 0 "#PWR07" H 7250 1300 50  0001 C CNN
F 1 "GND" H 7250 1400 50  0000 C CNN
F 2 "" H 7250 1550 50  0000 C CNN
F 3 "" H 7250 1550 50  0000 C CNN
	1    7250 1550
	1    0    0    -1  
$EndComp
Wire Wire Line
	7350 1500 7250 1500
Wire Wire Line
	7250 1500 7250 1550
Wire Wire Line
	2500 1500 2650 1500
Wire Wire Line
	2650 1500 2650 1550
Wire Wire Line
	2500 1400 5150 1400
Wire Wire Line
	5150 1400 5150 2600
Wire Wire Line
	5150 2600 5200 2600
Wire Wire Line
	6600 2700 6650 2700
Wire Wire Line
	6650 2700 6650 1400
Wire Wire Line
	6650 1400 7350 1400
Wire Wire Line
	3350 3550 5200 3550
Wire Wire Line
	3350 1100 3350 3550
Wire Wire Line
	3300 3700 5200 3700
Wire Wire Line
	3300 1200 3300 3700
Text Label 4150 1100 0    60   ~ 0
LOAD
Text Label 4150 1200 0    60   ~ 0
CLOCK
$Comp
L PWR_FLAG #FLG08
U 1 1 57728157
P 8750 2150
F 0 "#FLG08" H 8750 2245 50  0001 C CNN
F 1 "PWR_FLAG" H 8750 2330 50  0000 C CNN
F 2 "" H 8750 2150 50  0000 C CNN
F 3 "" H 8750 2150 50  0000 C CNN
	1    8750 2150
	1    0    0    -1  
$EndComp
$Comp
L PWR_FLAG #FLG09
U 1 1 577281A4
P 8750 2550
F 0 "#FLG09" H 8750 2645 50  0001 C CNN
F 1 "PWR_FLAG" H 8750 2730 50  0000 C CNN
F 2 "" H 8750 2550 50  0000 C CNN
F 3 "" H 8750 2550 50  0000 C CNN
	1    8750 2550
	1    0    0    -1  
$EndComp
$Comp
L GND #PWR010
U 1 1 577281F1
P 8750 2650
F 0 "#PWR010" H 8750 2400 50  0001 C CNN
F 1 "GND" H 8750 2500 50  0000 C CNN
F 2 "" H 8750 2650 50  0000 C CNN
F 3 "" H 8750 2650 50  0000 C CNN
	1    8750 2650
	1    0    0    -1  
$EndComp
Wire Wire Line
	8450 2150 8750 2150
Wire Wire Line
	8750 2550 8750 2650
NoConn ~ 6600 2800
Wire Wire Line
	2500 1100 7350 1100
Connection ~ 3350 1100
Wire Wire Line
	2500 1200 7350 1200
Connection ~ 3300 1200
Wire Wire Line
	2500 1300 2650 1300
Wire Wire Line
	2650 1300 2650 1050
Wire Wire Line
	7350 1300 7250 1300
Wire Wire Line
	7250 1300 7250 1050
$EndSCHEMATC
