PCBNEW-LibModule-V1  Uto 28 Srp 2015 18:22:27
# encoding utf-8
Units mm
$INDEX
ARDUINO_PRO_MINI
$EndINDEX
$MODULE ARDUINO_PRO_MINI
Po 0 0 0 15 55B7AC35 00000000 ~~
Li ARDUINO_PRO_MINI
Cd Arduino pro mini, eliptcal pads
Kw arduino
Sc 0
AR /55B382AB
Op 0 0 0
T0 0 -5.08 1.778 1.143 0 0.28702 N V 21 N "U2"
T1 0 -1.905 1.778 1.143 0 0.28702 N V 21 N "ARDUINO_PRO_MINI"
DS -16.51 -12.7 -16.51 5.08 0.381 21
DS 16.51 -12.7 16.51 5.08 0.381 21
DS -16.51 -12.7 16.51 -12.7 0.381 21
DS 16.51 5.08 -16.51 5.08 0.381 21
$PAD
Sh "1" R 1.5748 4 0 0 0
Dr 0 0 0
At SMD N 00888000
Ne 0 ""
Po -13.97 6.35
$EndPAD
$PAD
Sh "2" O 1.5748 4 0 0 0
Dr 0 0 0
At SMD N 00888000
Ne 0 ""
Po -11.43 1.27
$EndPAD
$PAD
Sh "3" O 1.5748 4 0 0 0
Dr 0 0 0
At SMD N 00888000
Ne 0 ""
Po -8.89 6.35
$EndPAD
$PAD
Sh "4" O 1.5748 4 0 0 0
Dr 0 0 0
At SMD N 00888000
Ne 4 "GND"
Po -6.35 1.27
$EndPAD
$PAD
Sh "5" O 1.5748 4 0 0 0
Dr 0 0 0
At SMD N 00888000
Ne 0 ""
Po -3.81 6.35
$EndPAD
$PAD
Sh "6" O 1.5748 4 0 0 0
Dr 0 0 0
At SMD N 00888000
Ne 0 ""
Po -1.27 1.27
$EndPAD
$PAD
Sh "7" O 1.5748 4 0 0 0
Dr 0 0 0
At SMD N 00888000
Ne 0 ""
Po 1.27 6.35
$EndPAD
$PAD
Sh "8" O 1.5748 4 0 0 0
Dr 0 0 0
At SMD N 00888000
Ne 0 ""
Po 3.81 1.27
$EndPAD
$PAD
Sh "9" O 1.5748 4 0 0 0
Dr 0 0 0
At SMD N 00888000
Ne 0 ""
Po 6.35 6.35
$EndPAD
$PAD
Sh "10" O 1.5748 4 0 0 0
Dr 0 0 0
At SMD N 00888000
Ne 0 ""
Po 8.89 1.27
$EndPAD
$PAD
Sh "11" O 1.5748 4 0 0 0
Dr 0 0 0
At SMD N 00888000
Ne 0 ""
Po 11.43 6.35
$EndPAD
$PAD
Sh "12" O 1.5748 4 0 0 0
Dr 0 0 0
At SMD N 00888000
Ne 9 "N-000007"
Po 13.97 1.27
$EndPAD
$PAD
Sh "13" O 1.5748 4 0 0 0
Dr 0 0 0
At SMD N 00888000
Ne 5 "N-000001"
Po 13.97 -8.89
$EndPAD
$PAD
Sh "14" O 1.5748 4 0 0 0
Dr 0 0 0
At SMD N 00888000
Ne 7 "N-000005"
Po 11.43 -13.97
$EndPAD
$PAD
Sh "15" O 1.5748 4 0 0 0
Dr 0 0 0
At SMD N 00888000
Ne 6 "N-000004"
Po 8.89 -8.89
$EndPAD
$PAD
Sh "16" O 1.5748 4 0 0 0
Dr 0 0 0
At SMD N 00888000
Ne 8 "N-000006"
Po 6.35 -13.97
$EndPAD
$PAD
Sh "17" O 1.5748 4 0 0 0
Dr 0 0 0
At SMD N 00888000
Ne 2 "/ldr/Y0"
Po 3.81 -8.89
$EndPAD
$PAD
Sh "18" O 1.5748 4 0 0 0
Dr 0 0 0
At SMD N 00888000
Ne 3 "/ldr/Y1"
Po 1.27 -13.97
$EndPAD
$PAD
Sh "19" O 1.5748 4 0 0 0
Dr 0 0 0
At SMD N 00888000
Ne 0 ""
Po -1.27 -8.89
$EndPAD
$PAD
Sh "20" O 1.5748 4 0 0 0
Dr 0 0 0
At SMD N 00888000
Ne 0 ""
Po -3.81 -13.97
$EndPAD
$PAD
Sh "21" O 1.5748 4 0 0 0
Dr 0 0 0
At SMD N 00888000
Ne 1 "+3.3V"
Po -6.35 -8.89
$EndPAD
$PAD
Sh "22" O 1.5748 4 0 0 0
Dr 0 0 0
At SMD N 00888000
Ne 0 ""
Po -8.89 -13.97
$EndPAD
$PAD
Sh "23" O 1.5748 4 0 0 0
Dr 0 0 0
At SMD N 00888000
Ne 4 "GND"
Po -11.43 -8.89
$EndPAD
$PAD
Sh "24" O 1.5748 4 0 0 0
Dr 0 0 0
At SMD N 00888000
Ne 0 ""
Po -13.97 -13.97
$EndPAD
$EndMODULE ARDUINO_PRO_MINI
$EndLIBRARY
