EESchema Schematic File Version 2
LIBS:card_reader-rescue
LIBS:power
LIBS:device
LIBS:transistors
LIBS:conn
LIBS:linear
LIBS:regul
LIBS:74xx
LIBS:cmos4000
LIBS:adc-dac
LIBS:memory
LIBS:xilinx
LIBS:microcontrollers
LIBS:dsp
LIBS:microchip
LIBS:analog_switches
LIBS:motorola
LIBS:texas
LIBS:intel
LIBS:audio
LIBS:interface
LIBS:digital-audio
LIBS:philips
LIBS:display
LIBS:cypress
LIBS:siliconi
LIBS:opto
LIBS:atmel
LIBS:contrib
LIBS:valves
LIBS:ldr-5mm
LIBS:4051
LIBS:74hc595
LIBS:arduino_pro_mini_lib
LIBS:nRF24L01+
LIBS:7833
LIBS:arduino_nano
LIBS:card_reader-cache
EELAYER 25 0
EELAYER END
$Descr A4 11693 8268
encoding utf-8
Sheet 2 3
Title "Punched card reader"
Date "4 sep 2015"
Rev "2"
Comp "igor@hyperglitch.com"
Comment1 ""
Comment2 ""
Comment3 ""
Comment4 ""
$EndDescr
$Comp
L LED-RESCUE-card_reader D1
U 1 1 55B38AB9
P 5000 2350
F 0 "D1" H 5000 2450 50  0000 C CNN
F 1 "LED" H 5000 2250 50  0000 C CNN
F 2 "~" H 5000 2350 60  0000 C CNN
F 3 "~" H 5000 2350 60  0000 C CNN
	1    5000 2350
	1    0    0    -1  
$EndComp
$Comp
L LED-RESCUE-card_reader D2
U 1 1 55B38ABF
P 5000 2650
F 0 "D2" H 5000 2750 50  0000 C CNN
F 1 "LED" H 5000 2550 50  0000 C CNN
F 2 "~" H 5000 2650 60  0000 C CNN
F 3 "~" H 5000 2650 60  0000 C CNN
	1    5000 2650
	1    0    0    -1  
$EndComp
$Comp
L LED-RESCUE-card_reader D3
U 1 1 55B38AC5
P 5000 2950
F 0 "D3" H 5000 3050 50  0000 C CNN
F 1 "LED" H 5000 2850 50  0000 C CNN
F 2 "~" H 5000 2950 60  0000 C CNN
F 3 "~" H 5000 2950 60  0000 C CNN
	1    5000 2950
	1    0    0    -1  
$EndComp
$Comp
L LED-RESCUE-card_reader D4
U 1 1 55B38ACB
P 5000 3250
F 0 "D4" H 5000 3350 50  0000 C CNN
F 1 "LED" H 5000 3150 50  0000 C CNN
F 2 "~" H 5000 3250 60  0000 C CNN
F 3 "~" H 5000 3250 60  0000 C CNN
	1    5000 3250
	1    0    0    -1  
$EndComp
$Comp
L LED-RESCUE-card_reader D5
U 1 1 55B38AD1
P 5000 3550
F 0 "D5" H 5000 3650 50  0000 C CNN
F 1 "LED" H 5000 3450 50  0000 C CNN
F 2 "~" H 5000 3550 60  0000 C CNN
F 3 "~" H 5000 3550 60  0000 C CNN
	1    5000 3550
	1    0    0    -1  
$EndComp
$Comp
L LED-RESCUE-card_reader D6
U 1 1 55B38AD7
P 5000 3850
F 0 "D6" H 5000 3950 50  0000 C CNN
F 1 "LED" H 5000 3750 50  0000 C CNN
F 2 "~" H 5000 3850 60  0000 C CNN
F 3 "~" H 5000 3850 60  0000 C CNN
	1    5000 3850
	1    0    0    -1  
$EndComp
$Comp
L LED-RESCUE-card_reader D7
U 1 1 55B38ADD
P 5000 4150
F 0 "D7" H 5000 4250 50  0000 C CNN
F 1 "LED" H 5000 4050 50  0000 C CNN
F 2 "~" H 5000 4150 60  0000 C CNN
F 3 "~" H 5000 4150 60  0000 C CNN
	1    5000 4150
	1    0    0    -1  
$EndComp
$Comp
L LED-RESCUE-card_reader D8
U 1 1 55B38AE3
P 5000 4450
F 0 "D8" H 5000 4550 50  0000 C CNN
F 1 "LED" H 5000 4350 50  0000 C CNN
F 2 "~" H 5000 4450 60  0000 C CNN
F 3 "~" H 5000 4450 60  0000 C CNN
	1    5000 4450
	1    0    0    -1  
$EndComp
$Comp
L LED-RESCUE-card_reader D9
U 1 1 55B38AE9
P 5000 4750
F 0 "D9" H 5000 4850 50  0000 C CNN
F 1 "LED" H 5000 4650 50  0000 C CNN
F 2 "~" H 5000 4750 60  0000 C CNN
F 3 "~" H 5000 4750 60  0000 C CNN
	1    5000 4750
	1    0    0    -1  
$EndComp
$Comp
L LED-RESCUE-card_reader D10
U 1 1 55B38AEF
P 5000 5050
F 0 "D10" H 5000 5150 50  0000 C CNN
F 1 "LED" H 5000 4950 50  0000 C CNN
F 2 "~" H 5000 5050 60  0000 C CNN
F 3 "~" H 5000 5050 60  0000 C CNN
	1    5000 5050
	1    0    0    -1  
$EndComp
$Comp
L LED-RESCUE-card_reader D11
U 1 1 55B38AF5
P 5000 5350
F 0 "D11" H 5000 5450 50  0000 C CNN
F 1 "LED" H 5000 5250 50  0000 C CNN
F 2 "~" H 5000 5350 60  0000 C CNN
F 3 "~" H 5000 5350 60  0000 C CNN
	1    5000 5350
	1    0    0    -1  
$EndComp
$Comp
L LED-RESCUE-card_reader D12
U 1 1 55B38AFB
P 5000 5650
F 0 "D12" H 5000 5750 50  0000 C CNN
F 1 "LED" H 5000 5550 50  0000 C CNN
F 2 "~" H 5000 5650 60  0000 C CNN
F 3 "~" H 5000 5650 60  0000 C CNN
	1    5000 5650
	1    0    0    -1  
$EndComp
$Comp
L R-RESCUE-card_reader R1
U 1 1 55B38B01
P 5450 2350
F 0 "R1" V 5530 2350 40  0000 C CNN
F 1 "470" V 5457 2351 40  0000 C CNN
F 2 "~" V 5380 2350 30  0000 C CNN
F 3 "~" H 5450 2350 30  0000 C CNN
	1    5450 2350
	0    -1   -1   0   
$EndComp
$Comp
L R-RESCUE-card_reader R2
U 1 1 55B38B07
P 5450 2650
F 0 "R2" V 5530 2650 40  0000 C CNN
F 1 "470" V 5457 2651 40  0000 C CNN
F 2 "~" V 5380 2650 30  0000 C CNN
F 3 "~" H 5450 2650 30  0000 C CNN
	1    5450 2650
	0    -1   -1   0   
$EndComp
$Comp
L R-RESCUE-card_reader R3
U 1 1 55B38B0D
P 5450 2950
F 0 "R3" V 5530 2950 40  0000 C CNN
F 1 "R" V 5457 2951 40  0000 C CNN
F 2 "~" V 5380 2950 30  0000 C CNN
F 3 "~" H 5450 2950 30  0000 C CNN
	1    5450 2950
	0    -1   -1   0   
$EndComp
$Comp
L R-RESCUE-card_reader R4
U 1 1 55B38B13
P 5450 3250
F 0 "R4" V 5530 3250 40  0000 C CNN
F 1 "R" V 5457 3251 40  0000 C CNN
F 2 "~" V 5380 3250 30  0000 C CNN
F 3 "~" H 5450 3250 30  0000 C CNN
	1    5450 3250
	0    -1   -1   0   
$EndComp
$Comp
L R-RESCUE-card_reader R5
U 1 1 55B38B19
P 5450 3550
F 0 "R5" V 5530 3550 40  0000 C CNN
F 1 "R" V 5457 3551 40  0000 C CNN
F 2 "~" V 5380 3550 30  0000 C CNN
F 3 "~" H 5450 3550 30  0000 C CNN
	1    5450 3550
	0    -1   -1   0   
$EndComp
$Comp
L R-RESCUE-card_reader R6
U 1 1 55B38B1F
P 5450 3850
F 0 "R6" V 5530 3850 40  0000 C CNN
F 1 "R" V 5457 3851 40  0000 C CNN
F 2 "~" V 5380 3850 30  0000 C CNN
F 3 "~" H 5450 3850 30  0000 C CNN
	1    5450 3850
	0    -1   -1   0   
$EndComp
$Comp
L R-RESCUE-card_reader R7
U 1 1 55B38B25
P 5450 4150
F 0 "R7" V 5530 4150 40  0000 C CNN
F 1 "R" V 5457 4151 40  0000 C CNN
F 2 "~" V 5380 4150 30  0000 C CNN
F 3 "~" H 5450 4150 30  0000 C CNN
	1    5450 4150
	0    -1   -1   0   
$EndComp
$Comp
L R-RESCUE-card_reader R8
U 1 1 55B38B2B
P 5450 4450
F 0 "R8" V 5530 4450 40  0000 C CNN
F 1 "R" V 5457 4451 40  0000 C CNN
F 2 "~" V 5380 4450 30  0000 C CNN
F 3 "~" H 5450 4450 30  0000 C CNN
	1    5450 4450
	0    -1   -1   0   
$EndComp
$Comp
L R-RESCUE-card_reader R9
U 1 1 55B38B31
P 5450 4750
F 0 "R9" V 5530 4750 40  0000 C CNN
F 1 "R" V 5457 4751 40  0000 C CNN
F 2 "~" V 5380 4750 30  0000 C CNN
F 3 "~" H 5450 4750 30  0000 C CNN
	1    5450 4750
	0    -1   -1   0   
$EndComp
$Comp
L R-RESCUE-card_reader R10
U 1 1 55B38B37
P 5450 5050
F 0 "R10" V 5530 5050 40  0000 C CNN
F 1 "R" V 5457 5051 40  0000 C CNN
F 2 "~" V 5380 5050 30  0000 C CNN
F 3 "~" H 5450 5050 30  0000 C CNN
	1    5450 5050
	0    -1   -1   0   
$EndComp
$Comp
L R-RESCUE-card_reader R11
U 1 1 55B38B3D
P 5450 5350
F 0 "R11" V 5530 5350 40  0000 C CNN
F 1 "R" V 5457 5351 40  0000 C CNN
F 2 "~" V 5380 5350 30  0000 C CNN
F 3 "~" H 5450 5350 30  0000 C CNN
	1    5450 5350
	0    -1   -1   0   
$EndComp
$Comp
L R-RESCUE-card_reader R12
U 1 1 55B38B43
P 5450 5650
F 0 "R12" V 5530 5650 40  0000 C CNN
F 1 "R" V 5457 5651 40  0000 C CNN
F 2 "~" V 5380 5650 30  0000 C CNN
F 3 "~" H 5450 5650 30  0000 C CNN
	1    5450 5650
	0    -1   -1   0   
$EndComp
$Comp
L 74HC595MOD U5
U 1 1 55B38B49
P 3700 5000
F 0 "U5" H 3850 5600 70  0000 C CNN
F 1 "74HC595MOD" H 3700 4400 70  0000 C CNN
F 2 "~" H 3700 5000 60  0000 C CNN
F 3 "~" H 3700 5000 60  0000 C CNN
	1    3700 5000
	1    0    0    -1  
$EndComp
Wire Wire Line
	5700 2350 5700 5750
Connection ~ 5700 2650
Connection ~ 5700 2950
Connection ~ 5700 3250
Connection ~ 5700 3550
Connection ~ 5700 3850
Connection ~ 5700 4150
Connection ~ 5700 4450
Connection ~ 5700 4750
Connection ~ 5700 5050
Connection ~ 5700 5350
Connection ~ 5700 5650
Wire Wire Line
	4600 3250 4800 3250
Wire Wire Line
	4550 3550 4800 3550
Wire Wire Line
	4600 2950 4800 2950
Wire Wire Line
	4500 3850 4800 3850
Wire Wire Line
	4450 4150 4800 4150
Wire Wire Line
	4450 4450 4800 4450
Wire Wire Line
	4400 4750 4800 4750
Wire Wire Line
	4600 5050 4800 5050
Wire Wire Line
	4550 5350 4800 5350
Wire Wire Line
	4500 5650 4800 5650
Wire Wire Line
	4400 3600 4400 4100
Wire Wire Line
	2550 2550 2800 2550
Wire Wire Line
	2800 2550 2800 2700
Wire Wire Line
	2800 2700 3000 2700
Wire Wire Line
	2550 2650 2750 2650
Wire Wire Line
	2750 2650 2750 2800
Wire Wire Line
	2750 2800 2950 2800
Wire Wire Line
	2950 2800 2950 2900
Wire Wire Line
	2950 2900 3000 2900
Wire Wire Line
	2600 3200 3000 3200
Wire Wire Line
	3000 4750 3000 4650
Wire Wire Line
	3000 4650 2650 4650
Wire Wire Line
	2650 4650 2650 2650
Connection ~ 2650 2650
Wire Wire Line
	3000 5050 2600 5050
Wire Wire Line
	2600 5050 2600 2750
Connection ~ 2600 2750
Wire Wire Line
	2600 2750 2550 2750
Connection ~ 2600 3200
NoConn ~ 4400 5150
NoConn ~ 4400 5250
NoConn ~ 4400 5450
$Comp
L 74HC595MOD U4
U 1 1 55B38BC8
P 3700 3150
F 0 "U4" H 3850 3750 70  0000 C CNN
F 1 "74HC595MOD" H 3700 2550 70  0000 C CNN
F 2 "~" H 3700 3150 60  0000 C CNN
F 3 "~" H 3700 3150 60  0000 C CNN
	1    3700 3150
	1    0    0    -1  
$EndComp
Wire Wire Line
	4800 2350 4500 2350
Wire Wire Line
	4500 2350 4500 2800
Wire Wire Line
	4500 2800 4400 2800
Wire Wire Line
	4800 2650 4550 2650
Wire Wire Line
	4550 2650 4550 2900
Wire Wire Line
	4550 2900 4400 2900
Wire Wire Line
	4600 2950 4600 3000
Wire Wire Line
	4600 3000 4400 3000
Wire Wire Line
	4600 3250 4600 3100
Wire Wire Line
	4600 3100 4400 3100
Wire Wire Line
	4550 3550 4550 3200
Wire Wire Line
	4550 3200 4400 3200
Wire Wire Line
	4500 3850 4500 3300
Wire Wire Line
	4500 3300 4400 3300
Wire Wire Line
	4400 3400 4450 3400
Wire Wire Line
	4450 3400 4450 4150
NoConn ~ 4400 2700
Wire Wire Line
	4450 4450 4450 4650
Wire Wire Line
	4450 4650 4400 4650
Wire Wire Line
	4600 5050 4600 4850
Wire Wire Line
	4600 4850 4400 4850
Wire Wire Line
	4550 5350 4550 4950
Wire Wire Line
	4550 4950 4400 4950
Wire Wire Line
	4500 5650 4500 5050
Wire Wire Line
	4500 5050 4400 5050
$Comp
L LED-RESCUE-card_reader D18
U 1 1 55B38DF8
P 10300 3950
F 0 "D18" H 10300 4050 50  0000 C CNN
F 1 "LED" H 10300 3850 50  0000 C CNN
F 2 "~" H 10300 3950 60  0000 C CNN
F 3 "~" H 10300 3950 60  0000 C CNN
	1    10300 3950
	-1   0    0    -1  
$EndComp
$Comp
L LED-RESCUE-card_reader D19
U 1 1 55B38DFE
P 10300 4250
F 0 "D19" H 10300 4350 50  0000 C CNN
F 1 "LED" H 10300 4150 50  0000 C CNN
F 2 "~" H 10300 4250 60  0000 C CNN
F 3 "~" H 10300 4250 60  0000 C CNN
	1    10300 4250
	-1   0    0    -1  
$EndComp
$Comp
L LED-RESCUE-card_reader D20
U 1 1 55B38E04
P 10300 4550
F 0 "D20" H 10300 4650 50  0000 C CNN
F 1 "LED" H 10300 4450 50  0000 C CNN
F 2 "~" H 10300 4550 60  0000 C CNN
F 3 "~" H 10300 4550 60  0000 C CNN
	1    10300 4550
	-1   0    0    -1  
$EndComp
$Comp
L LED-RESCUE-card_reader D21
U 1 1 55B38E0A
P 10300 4850
F 0 "D21" H 10300 4950 50  0000 C CNN
F 1 "LED" H 10300 4750 50  0000 C CNN
F 2 "~" H 10300 4850 60  0000 C CNN
F 3 "~" H 10300 4850 60  0000 C CNN
	1    10300 4850
	-1   0    0    -1  
$EndComp
$Comp
L LED-RESCUE-card_reader D22
U 1 1 55B38E10
P 10300 5150
F 0 "D22" H 10300 5250 50  0000 C CNN
F 1 "LED" H 10300 5050 50  0000 C CNN
F 2 "~" H 10300 5150 60  0000 C CNN
F 3 "~" H 10300 5150 60  0000 C CNN
	1    10300 5150
	-1   0    0    -1  
$EndComp
$Comp
L LED-RESCUE-card_reader D23
U 1 1 55B38E16
P 10300 5450
F 0 "D23" H 10300 5550 50  0000 C CNN
F 1 "LED" H 10300 5350 50  0000 C CNN
F 2 "~" H 10300 5450 60  0000 C CNN
F 3 "~" H 10300 5450 60  0000 C CNN
	1    10300 5450
	-1   0    0    -1  
$EndComp
$Comp
L LED-RESCUE-card_reader D24
U 1 1 55B38E1C
P 10300 5750
F 0 "D24" H 10300 5850 50  0000 C CNN
F 1 "LED" H 10300 5650 50  0000 C CNN
F 2 "~" H 10300 5750 60  0000 C CNN
F 3 "~" H 10300 5750 60  0000 C CNN
	1    10300 5750
	-1   0    0    -1  
$EndComp
$Comp
L LED-RESCUE-card_reader D13
U 1 1 55B38E22
P 10300 2450
F 0 "D13" H 10300 2550 50  0000 C CNN
F 1 "LED" H 10300 2350 50  0000 C CNN
F 2 "~" H 10300 2450 60  0000 C CNN
F 3 "~" H 10300 2450 60  0000 C CNN
	1    10300 2450
	-1   0    0    -1  
$EndComp
$Comp
L R-RESCUE-card_reader R18
U 1 1 55B38E28
P 9850 3950
F 0 "R18" V 9930 3950 40  0000 C CNN
F 1 "R" V 9857 3951 40  0000 C CNN
F 2 "~" V 9780 3950 30  0000 C CNN
F 3 "~" H 9850 3950 30  0000 C CNN
	1    9850 3950
	0    1    -1   0   
$EndComp
$Comp
L R-RESCUE-card_reader R19
U 1 1 55B38E2E
P 9850 4250
F 0 "R19" V 9930 4250 40  0000 C CNN
F 1 "R" V 9857 4251 40  0000 C CNN
F 2 "~" V 9780 4250 30  0000 C CNN
F 3 "~" H 9850 4250 30  0000 C CNN
	1    9850 4250
	0    1    -1   0   
$EndComp
$Comp
L R-RESCUE-card_reader R20
U 1 1 55B38E34
P 9850 4550
F 0 "R20" V 9930 4550 40  0000 C CNN
F 1 "R" V 9857 4551 40  0000 C CNN
F 2 "~" V 9780 4550 30  0000 C CNN
F 3 "~" H 9850 4550 30  0000 C CNN
	1    9850 4550
	0    1    -1   0   
$EndComp
$Comp
L R-RESCUE-card_reader R21
U 1 1 55B38E3A
P 9850 4850
F 0 "R21" V 9930 4850 40  0000 C CNN
F 1 "R" V 9857 4851 40  0000 C CNN
F 2 "~" V 9780 4850 30  0000 C CNN
F 3 "~" H 9850 4850 30  0000 C CNN
	1    9850 4850
	0    1    -1   0   
$EndComp
$Comp
L R-RESCUE-card_reader R22
U 1 1 55B38E40
P 9850 5150
F 0 "R22" V 9930 5150 40  0000 C CNN
F 1 "R" V 9857 5151 40  0000 C CNN
F 2 "~" V 9780 5150 30  0000 C CNN
F 3 "~" H 9850 5150 30  0000 C CNN
	1    9850 5150
	0    1    -1   0   
$EndComp
$Comp
L R-RESCUE-card_reader R23
U 1 1 55B38E46
P 9850 5450
F 0 "R23" V 9930 5450 40  0000 C CNN
F 1 "R" V 9857 5451 40  0000 C CNN
F 2 "~" V 9780 5450 30  0000 C CNN
F 3 "~" H 9850 5450 30  0000 C CNN
	1    9850 5450
	0    1    -1   0   
$EndComp
$Comp
L R-RESCUE-card_reader R24
U 1 1 55B38E4C
P 9850 5750
F 0 "R24" V 9930 5750 40  0000 C CNN
F 1 "R" V 9857 5751 40  0000 C CNN
F 2 "~" V 9780 5750 30  0000 C CNN
F 3 "~" H 9850 5750 30  0000 C CNN
	1    9850 5750
	0    1    -1   0   
$EndComp
$Comp
L R-RESCUE-card_reader R13
U 1 1 55B38E52
P 9850 2450
F 0 "R13" V 9930 2450 40  0000 C CNN
F 1 "680" V 9857 2451 40  0000 C CNN
F 2 "~" V 9780 2450 30  0000 C CNN
F 3 "~" H 9850 2450 30  0000 C CNN
	1    9850 2450
	0    1    -1   0   
$EndComp
$Comp
L LED-RESCUE-card_reader D14
U 1 1 55B38E5E
P 10300 2750
F 0 "D14" H 10300 2850 50  0000 C CNN
F 1 "LED" H 10300 2650 50  0000 C CNN
F 2 "~" H 10300 2750 60  0000 C CNN
F 3 "~" H 10300 2750 60  0000 C CNN
	1    10300 2750
	-1   0    0    -1  
$EndComp
$Comp
L LED-RESCUE-card_reader D15
U 1 1 55B38E64
P 10300 3050
F 0 "D15" H 10300 3150 50  0000 C CNN
F 1 "LED" H 10300 2950 50  0000 C CNN
F 2 "~" H 10300 3050 60  0000 C CNN
F 3 "~" H 10300 3050 60  0000 C CNN
	1    10300 3050
	-1   0    0    -1  
$EndComp
$Comp
L LED-RESCUE-card_reader D16
U 1 1 55B38E6A
P 10300 3350
F 0 "D16" H 10300 3450 50  0000 C CNN
F 1 "LED" H 10300 3250 50  0000 C CNN
F 2 "~" H 10300 3350 60  0000 C CNN
F 3 "~" H 10300 3350 60  0000 C CNN
	1    10300 3350
	-1   0    0    -1  
$EndComp
$Comp
L LED-RESCUE-card_reader D17
U 1 1 55B38E70
P 10300 3650
F 0 "D17" H 10300 3750 50  0000 C CNN
F 1 "LED" H 10300 3550 50  0000 C CNN
F 2 "~" H 10300 3650 60  0000 C CNN
F 3 "~" H 10300 3650 60  0000 C CNN
	1    10300 3650
	-1   0    0    -1  
$EndComp
$Comp
L R-RESCUE-card_reader R14
U 1 1 55B38E76
P 9850 2750
F 0 "R14" V 9930 2750 40  0000 C CNN
F 1 "680" V 9857 2751 40  0000 C CNN
F 2 "~" V 9780 2750 30  0000 C CNN
F 3 "~" H 9850 2750 30  0000 C CNN
	1    9850 2750
	0    1    -1   0   
$EndComp
$Comp
L R-RESCUE-card_reader R15
U 1 1 55B38E7C
P 9850 3050
F 0 "R15" V 9930 3050 40  0000 C CNN
F 1 "R" V 9857 3051 40  0000 C CNN
F 2 "~" V 9780 3050 30  0000 C CNN
F 3 "~" H 9850 3050 30  0000 C CNN
	1    9850 3050
	0    1    -1   0   
$EndComp
$Comp
L R-RESCUE-card_reader R16
U 1 1 55B38E82
P 9850 3350
F 0 "R16" V 9930 3350 40  0000 C CNN
F 1 "R" V 9857 3351 40  0000 C CNN
F 2 "~" V 9780 3350 30  0000 C CNN
F 3 "~" H 9850 3350 30  0000 C CNN
	1    9850 3350
	0    1    -1   0   
$EndComp
$Comp
L R-RESCUE-card_reader R17
U 1 1 55B38E88
P 9850 3650
F 0 "R17" V 9930 3650 40  0000 C CNN
F 1 "R" V 9857 3651 40  0000 C CNN
F 2 "~" V 9780 3650 30  0000 C CNN
F 3 "~" H 9850 3650 30  0000 C CNN
	1    9850 3650
	0    1    -1   0   
$EndComp
Connection ~ 10500 5750
Connection ~ 10500 5450
Connection ~ 10500 5150
Connection ~ 10500 4850
Connection ~ 10500 4550
Connection ~ 10500 4250
Connection ~ 9600 4250
Connection ~ 9600 4550
Connection ~ 9600 4850
Connection ~ 9600 5150
Connection ~ 9600 5450
Connection ~ 9600 5750
Connection ~ 10500 3950
Connection ~ 9600 2450
Connection ~ 10500 2450
Connection ~ 10500 2750
Connection ~ 10500 3050
Connection ~ 10500 3350
Connection ~ 10500 3650
Connection ~ 9600 3950
Connection ~ 9600 3650
Connection ~ 9600 3350
Connection ~ 9600 3050
Connection ~ 9600 2750
$Comp
L CONN_2 P5
U 1 1 55B38EAC
P 9050 2150
F 0 "P5" V 9000 2150 40  0000 C CNN
F 1 "CONN_LED_IN" V 9100 2150 40  0000 C CNN
F 2 "~" H 9050 2150 60  0000 C CNN
F 3 "~" H 9050 2150 60  0000 C CNN
	1    9050 2150
	-1   0    0    -1  
$EndComp
Wire Wire Line
	10500 2050 10500 5750
$Comp
L CONN_6 P4
U 1 1 55B3DE7F
P 2200 2500
F 0 "P4" V 2150 2500 60  0000 C CNN
F 1 "CONN_UI_IN" V 2250 2500 60  0000 C CNN
F 2 "~" H 2200 2500 60  0000 C CNN
F 3 "~" H 2200 2500 60  0000 C CNN
	1    2200 2500
	-1   0    0    -1  
$EndComp
NoConn ~ 2550 2450
NoConn ~ 4400 4550
Wire Wire Line
	9400 2250 9600 2250
Wire Wire Line
	9400 2050 10500 2050
Wire Wire Line
	9600 2250 9600 5750
Text GLabel 2550 2250 2    39   Input ~ 0
ldr_5V
Text GLabel 2550 2350 2    39   Input ~ 0
ldr_gnd
Wire Wire Line
	2900 3000 3000 3000
Wire Wire Line
	2900 2150 2900 4850
Wire Wire Line
	2900 2550 3400 2550
Connection ~ 3400 2550
Text GLabel 3400 3800 3    39   Input ~ 0
ldr_gnd
Wire Wire Line
	3400 3800 3400 3700
Wire Wire Line
	3000 3300 2950 3300
Wire Wire Line
	2950 3300 2950 3750
Wire Wire Line
	2850 3750 3400 3750
Connection ~ 3400 3750
Text GLabel 3400 4400 1    39   Input ~ 0
ldr_5V
Wire Wire Line
	3400 4400 3400 4450
Wire Wire Line
	2900 4850 3000 4850
Wire Wire Line
	2900 4400 3400 4400
Text GLabel 3400 5650 3    39   Input ~ 0
ldr_gnd
Wire Wire Line
	3400 5650 3400 5550
Wire Wire Line
	3000 5150 2950 5150
Wire Wire Line
	2950 5150 2950 5600
Wire Wire Line
	2850 5600 3400 5600
Connection ~ 3400 5600
Text GLabel 5700 5750 3    39   Input ~ 0
ldr_gnd
$Comp
L PWR_FLAG #FLG018
U 1 1 55BA8CEE
P 3150 5550
F 0 "#FLG018" H 3150 5645 30  0001 C CNN
F 1 "PWR_FLAG" H 3150 5730 30  0000 C CNN
F 2 "" H 3150 5550 60  0000 C CNN
F 3 "" H 3150 5550 60  0000 C CNN
	1    3150 5550
	1    0    0    -1  
$EndComp
Wire Wire Line
	3150 5550 3150 5600
Connection ~ 3150 5600
$Comp
L PWR_FLAG #FLG019
U 1 1 55BA8E62
P 2550 2150
F 0 "#FLG019" H 2550 2245 30  0001 C CNN
F 1 "PWR_FLAG" H 2550 2330 30  0000 C CNN
F 2 "" H 2550 2150 60  0000 C CNN
F 3 "" H 2550 2150 60  0000 C CNN
	1    2550 2150
	1    0    0    -1  
$EndComp
Wire Wire Line
	2550 2150 2550 2250
Wire Wire Line
	2550 2150 2900 2150
Connection ~ 2900 2550
Wire Wire Line
	3400 2550 3400 2600
Wire Wire Line
	2550 2350 2850 2350
Wire Wire Line
	2850 2350 2850 5600
Connection ~ 2950 3750
Connection ~ 2950 5600
Connection ~ 2850 3750
Wire Wire Line
	3000 4550 3000 4100
Wire Wire Line
	3000 4100 4400 4100
Connection ~ 2900 3000
Connection ~ 2900 4400
Text Label 9500 2050 0    60   ~ 0
led_pwr_5V
Text Label 9500 2250 0    60   ~ 0
led_pwr_gnd
$EndSCHEMATC
