EESchema Schematic File Version 2
LIBS:card_reader-rescue
LIBS:power
LIBS:device
LIBS:transistors
LIBS:conn
LIBS:linear
LIBS:regul
LIBS:74xx
LIBS:cmos4000
LIBS:adc-dac
LIBS:memory
LIBS:xilinx
LIBS:microcontrollers
LIBS:dsp
LIBS:microchip
LIBS:analog_switches
LIBS:motorola
LIBS:texas
LIBS:intel
LIBS:audio
LIBS:interface
LIBS:digital-audio
LIBS:philips
LIBS:display
LIBS:cypress
LIBS:siliconi
LIBS:opto
LIBS:atmel
LIBS:contrib
LIBS:valves
LIBS:ldr-5mm
LIBS:4051
LIBS:74hc595
LIBS:arduino_pro_mini_lib
LIBS:nRF24L01+
LIBS:7833
LIBS:arduino_nano
LIBS:card_reader-cache
EELAYER 25 0
EELAYER END
$Descr A4 11693 8268
encoding utf-8
Sheet 1 3
Title "Punched card reader"
Date "4 sep 2015"
Rev "2"
Comp "igor@hyperglitch.com"
Comment1 ""
Comment2 ""
Comment3 ""
Comment4 ""
$EndDescr
$Comp
L GND-RESCUE-card_reader #PWR01
U 1 1 5505A173
P 3400 3075
F 0 "#PWR01" H 3400 3075 30  0001 C CNN
F 1 "GND" H 3400 3005 30  0001 C CNN
F 2 "" H 3400 3075 60  0000 C CNN
F 3 "" H 3400 3075 60  0000 C CNN
	1    3400 3075
	1    0    0    -1  
$EndComp
$Comp
L PWR_FLAG #FLG03
U 1 1 5505A1A0
P 3400 2975
F 0 "#FLG03" H 3400 3070 30  0001 C CNN
F 1 "PWR_FLAG" H 3400 3155 30  0000 C CNN
F 2 "" H 3400 2975 60  0000 C CNN
F 3 "" H 3400 2975 60  0000 C CNN
	1    3400 2975
	1    0    0    -1  
$EndComp
Wire Wire Line
	3400 2975 3400 3075
$Comp
L CONN_2 P2
U 1 1 55B3779F
P 1650 3125
F 0 "P2" V 1600 3125 40  0000 C CNN
F 1 "V_IN" V 1700 3125 40  0000 C CNN
F 2 "~" H 1650 3125 60  0000 C CNN
F 3 "~" H 1650 3125 60  0000 C CNN
	1    1650 3125
	-1   0    0    -1  
$EndComp
$Comp
L GND-RESCUE-card_reader #PWR04
U 1 1 55B377C9
P 2000 3325
F 0 "#PWR04" H 2000 3325 30  0001 C CNN
F 1 "GND" H 2000 3255 30  0001 C CNN
F 2 "" H 2000 3325 60  0000 C CNN
F 3 "" H 2000 3325 60  0000 C CNN
	1    2000 3325
	1    0    0    -1  
$EndComp
Wire Wire Line
	2000 3325 2000 3225
$Comp
L C-RESCUE-card_reader C1
U 1 1 55B37FE5
P 2300 3225
F 0 "C1" H 2300 3325 40  0000 L CNN
F 1 "2u2" H 2306 3140 40  0000 L CNN
F 2 "~" H 2338 3075 30  0000 C CNN
F 3 "~" H 2300 3225 60  0000 C CNN
	1    2300 3225
	1    0    0    -1  
$EndComp
$Comp
L GND-RESCUE-card_reader #PWR07
U 1 1 55B37FF4
P 2300 3425
F 0 "#PWR07" H 2300 3425 30  0001 C CNN
F 1 "GND" H 2300 3355 30  0001 C CNN
F 2 "" H 2300 3425 60  0000 C CNN
F 3 "" H 2300 3425 60  0000 C CNN
	1    2300 3425
	1    0    0    -1  
$EndComp
Text Notes 1550 2875 0    60   ~ 0
Power input
$Comp
L arduino_pro_mini U2
U 1 1 55B382AB
P 7350 3200
F 0 "U2" H 7850 2250 70  0000 C CNN
F 1 "ARDUINO_PRO_MINI" H 8100 2150 70  0000 C CNN
F 2 "DIL20" H 7350 3150 60  0000 C CNN
F 3 "" H 7350 3200 60  0000 C CNN
	1    7350 3200
	1    0    0    -1  
$EndComp
$Sheet
S 1500 3825 900  500 
U 55B38484
F0 "ui" 50
F1 "card_reader_ui.sch" 50
$EndSheet
$Sheet
S 5350 2850 550  400 
U 55B39CF3
F0 "ldr" 50
F1 "card_reader_ldr.sch" 50
F2 "X0" I L 5350 2950 60 
F3 "X1" I L 5350 3050 60 
F4 "X2" I L 5350 3150 60 
F5 "Y0" O R 5900 3000 60 
F6 "Y1" O R 5900 3100 60 
$EndSheet
$Comp
L GND-RESCUE-card_reader #PWR010
U 1 1 55B3C843
P 7350 4750
F 0 "#PWR010" H 7350 4750 30  0001 C CNN
F 1 "GND" H 7350 4680 30  0001 C CNN
F 2 "" H 7350 4750 60  0000 C CNN
F 3 "" H 7350 4750 60  0000 C CNN
	1    7350 4750
	1    0    0    -1  
$EndComp
NoConn ~ 7350 2050
Wire Wire Line
	6650 3000 5900 3000
Wire Wire Line
	6650 3100 5900 3100
$Comp
L CONN_6 P1
U 1 1 55B3DAF5
P 9550 3950
F 0 "P1" V 9500 3950 60  0000 C CNN
F 1 "CONN_UI_OUT" V 9600 3950 60  0000 C CNN
F 2 "~" H 9550 3950 60  0000 C CNN
F 3 "~" H 9550 3950 60  0000 C CNN
	1    9550 3950
	1    0    0    -1  
$EndComp
NoConn ~ 9200 3900
$Comp
L GND-RESCUE-card_reader #PWR012
U 1 1 55B3DD4A
P 9100 3850
F 0 "#PWR012" H 9100 3850 30  0001 C CNN
F 1 "GND" H 9100 3780 30  0001 C CNN
F 2 "" H 9100 3850 60  0000 C CNN
F 3 "" H 9100 3850 60  0000 C CNN
	1    9100 3850
	1    0    0    -1  
$EndComp
Wire Wire Line
	9100 3850 9100 3800
Wire Wire Line
	9100 3800 9200 3800
$Comp
L CONN_2 P3
U 1 1 55B3DFB7
P 9550 4800
F 0 "P3" V 9500 4800 40  0000 C CNN
F 1 "CONN_LED_OUT" V 9600 4800 40  0000 C CNN
F 2 "~" H 9550 4800 60  0000 C CNN
F 3 "~" H 9550 4800 60  0000 C CNN
	1    9550 4800
	1    0    0    -1  
$EndComp
$Comp
L GND-RESCUE-card_reader #PWR013
U 1 1 55B3E025
P 9200 4950
F 0 "#PWR013" H 9200 4950 30  0001 C CNN
F 1 "GND" H 9200 4880 30  0001 C CNN
F 2 "" H 9200 4950 60  0000 C CNN
F 3 "" H 9200 4950 60  0000 C CNN
	1    9200 4950
	1    0    0    -1  
$EndComp
Wire Wire Line
	9200 4950 9200 4900
NoConn ~ 6650 4500
NoConn ~ 8050 4000
NoConn ~ 8050 3900
NoConn ~ 6650 4400
Wire Wire Line
	9200 4000 8800 4000
Wire Wire Line
	8800 4000 8800 3150
Wire Wire Line
	8800 3150 8050 3150
Wire Wire Line
	8050 3250 8750 3250
Wire Wire Line
	8750 3250 8750 4100
Wire Wire Line
	8750 4100 9200 4100
Wire Wire Line
	9200 4200 8700 4200
Wire Wire Line
	8700 4200 8700 3500
Wire Wire Line
	8700 3500 8050 3500
Wire Wire Line
	8050 3600 8200 3600
Wire Wire Line
	8200 3600 8200 4900
Wire Wire Line
	8200 4900 5100 4900
Wire Wire Line
	5100 4900 5100 3150
Wire Wire Line
	5100 3150 5350 3150
Wire Wire Line
	8050 3700 8250 3700
Wire Wire Line
	8250 3700 8250 4950
Wire Wire Line
	8250 4950 5050 4950
Wire Wire Line
	5050 4950 5050 3050
Wire Wire Line
	5050 3050 5350 3050
Wire Wire Line
	8050 3800 8300 3800
Wire Wire Line
	8300 3800 8300 5000
Wire Wire Line
	8300 5000 5000 5000
Wire Wire Line
	5000 5000 5000 2950
Wire Wire Line
	5000 2950 5350 2950
NoConn ~ 6650 3200
NoConn ~ 6650 3300
NoConn ~ 8050 3050
$Comp
L +5V #PWR015
U 1 1 55E59892
P 2300 2975
F 0 "#PWR015" H 2300 3065 20  0001 C CNN
F 1 "+5V" H 2300 3065 30  0000 C CNN
F 2 "" H 2300 2975 60  0000 C CNN
F 3 "" H 2300 2975 60  0000 C CNN
	1    2300 2975
	1    0    0    -1  
$EndComp
$Comp
L +5V #PWR016
U 1 1 55E59991
P 9200 4700
F 0 "#PWR016" H 9200 4790 20  0001 C CNN
F 1 "+5V" H 9200 4790 30  0000 C CNN
F 2 "" H 9200 4700 60  0000 C CNN
F 3 "" H 9200 4700 60  0000 C CNN
	1    9200 4700
	1    0    0    -1  
$EndComp
$Comp
L +5V #PWR017
U 1 1 55E599EB
P 9200 3700
F 0 "#PWR017" H 9200 3790 20  0001 C CNN
F 1 "+5V" H 9200 3790 30  0000 C CNN
F 2 "" H 9200 3700 60  0000 C CNN
F 3 "" H 9200 3700 60  0000 C CNN
	1    9200 3700
	1    0    0    -1  
$EndComp
Wire Wire Line
	2000 3025 2550 3025
Wire Wire Line
	2300 3025 2300 2975
$Comp
L PWR_FLAG #FLG?
U 1 1 57767AA9
P 2550 3025
F 0 "#FLG?" H 2550 3120 50  0001 C CNN
F 1 "PWR_FLAG" H 2550 3205 50  0000 C CNN
F 2 "" H 2550 3025 50  0000 C CNN
F 3 "" H 2550 3025 50  0000 C CNN
	1    2550 3025
	1    0    0    -1  
$EndComp
Connection ~ 2300 3025
$Comp
L +5V #PWR?
U 1 1 57767DDA
P 7200 2000
F 0 "#PWR?" H 7200 1850 50  0001 C CNN
F 1 "+5V" H 7200 2140 50  0000 C CNN
F 2 "" H 7200 2000 50  0000 C CNN
F 3 "" H 7200 2000 50  0000 C CNN
	1    7200 2000
	1    0    0    -1  
$EndComp
Wire Wire Line
	7200 2000 7200 2050
NoConn ~ 8050 2950
NoConn ~ 8050 2850
NoConn ~ 8050 2750
NoConn ~ 8050 2650
NoConn ~ 8050 2550
$EndSCHEMATC
