EESchema Schematic File Version 2
LIBS:card_reader-rescue
LIBS:power
LIBS:device
LIBS:transistors
LIBS:conn
LIBS:linear
LIBS:regul
LIBS:74xx
LIBS:cmos4000
LIBS:adc-dac
LIBS:memory
LIBS:xilinx
LIBS:microcontrollers
LIBS:dsp
LIBS:microchip
LIBS:analog_switches
LIBS:motorola
LIBS:texas
LIBS:intel
LIBS:audio
LIBS:interface
LIBS:digital-audio
LIBS:philips
LIBS:display
LIBS:cypress
LIBS:siliconi
LIBS:opto
LIBS:atmel
LIBS:contrib
LIBS:valves
LIBS:ldr-5mm
LIBS:4051
LIBS:74hc595
LIBS:arduino_pro_mini_lib
LIBS:nRF24L01+
LIBS:7833
LIBS:arduino_nano
LIBS:card_reader-cache
EELAYER 25 0
EELAYER END
$Descr A4 11693 8268
encoding utf-8
Sheet 3 3
Title "Punched card reader"
Date "4 sep 2015"
Rev "2"
Comp "igor@hyperglitch.com"
Comment1 ""
Comment2 ""
Comment3 ""
Comment4 ""
$EndDescr
$Comp
L LDR-5MM RR1
U 1 1 55B3ABDF
P 3000 1750
F 0 "RR1" H 3000 1950 60  0000 C CNN
F 1 "LDR-5MM" H 3000 1600 60  0000 C CNN
F 2 "~" H 3000 1750 60  0000 C CNN
F 3 "~" H 3000 1750 60  0000 C CNN
	1    3000 1750
	0    -1   -1   0   
$EndComp
$Comp
L LDR-5MM RR2
U 1 1 55B3ABE5
P 3500 1750
F 0 "RR2" H 3500 1950 60  0000 C CNN
F 1 "LDR-5MM" H 3500 1600 60  0000 C CNN
F 2 "~" H 3500 1750 60  0000 C CNN
F 3 "~" H 3500 1750 60  0000 C CNN
	1    3500 1750
	0    -1   -1   0   
$EndComp
$Comp
L LDR-5MM RR3
U 1 1 55B3ABEB
P 4000 1750
F 0 "RR3" H 4000 1950 60  0000 C CNN
F 1 "LDR-5MM" H 4000 1600 60  0000 C CNN
F 2 "~" H 4000 1750 60  0000 C CNN
F 3 "~" H 4000 1750 60  0000 C CNN
	1    4000 1750
	0    -1   -1   0   
$EndComp
$Comp
L LDR-5MM RR4
U 1 1 55B3ABF1
P 4500 1750
F 0 "RR4" H 4500 1950 60  0000 C CNN
F 1 "LDR-5MM" H 4500 1600 60  0000 C CNN
F 2 "~" H 4500 1750 60  0000 C CNN
F 3 "~" H 4500 1750 60  0000 C CNN
	1    4500 1750
	0    -1   -1   0   
$EndComp
$Comp
L LDR-5MM RR5
U 1 1 55B3ABF7
P 5000 1750
F 0 "RR5" H 5000 1950 60  0000 C CNN
F 1 "LDR-5MM" H 5000 1600 60  0000 C CNN
F 2 "~" H 5000 1750 60  0000 C CNN
F 3 "~" H 5000 1750 60  0000 C CNN
	1    5000 1750
	0    -1   -1   0   
$EndComp
$Comp
L LDR-5MM RR6
U 1 1 55B3ABFD
P 5500 1750
F 0 "RR6" H 5500 1950 60  0000 C CNN
F 1 "LDR-5MM" H 5500 1600 60  0000 C CNN
F 2 "~" H 5500 1750 60  0000 C CNN
F 3 "~" H 5500 1750 60  0000 C CNN
	1    5500 1750
	0    -1   -1   0   
$EndComp
$Comp
L LDR-5MM RR7
U 1 1 55B3AC03
P 6000 1750
F 0 "RR7" H 6000 1950 60  0000 C CNN
F 1 "LDR-5MM" H 6000 1600 60  0000 C CNN
F 2 "~" H 6000 1750 60  0000 C CNN
F 3 "~" H 6000 1750 60  0000 C CNN
	1    6000 1750
	0    -1   -1   0   
$EndComp
$Comp
L LDR-5MM RR8
U 1 1 55B3AC09
P 6500 1750
F 0 "RR8" H 6500 1950 60  0000 C CNN
F 1 "LDR-5MM" H 6500 1600 60  0000 C CNN
F 2 "~" H 6500 1750 60  0000 C CNN
F 3 "~" H 6500 1750 60  0000 C CNN
	1    6500 1750
	0    -1   -1   0   
$EndComp
$Comp
L R-RESCUE-card_reader R25
U 1 1 55B3AC0F
P 3000 2400
F 0 "R25" V 3080 2400 40  0000 C CNN
F 1 "3k9" V 3007 2401 40  0000 C CNN
F 2 "~" V 2930 2400 30  0000 C CNN
F 3 "~" H 3000 2400 30  0000 C CNN
	1    3000 2400
	1    0    0    -1  
$EndComp
$Comp
L R-RESCUE-card_reader R26
U 1 1 55B3AC15
P 3500 2400
F 0 "R26" V 3580 2400 40  0000 C CNN
F 1 "3k9" V 3507 2401 40  0000 C CNN
F 2 "~" V 3430 2400 30  0000 C CNN
F 3 "~" H 3500 2400 30  0000 C CNN
	1    3500 2400
	1    0    0    -1  
$EndComp
$Comp
L R-RESCUE-card_reader R27
U 1 1 55B3AC1B
P 4000 2400
F 0 "R27" V 4080 2400 40  0000 C CNN
F 1 "3k9" V 4007 2401 40  0000 C CNN
F 2 "~" V 3930 2400 30  0000 C CNN
F 3 "~" H 4000 2400 30  0000 C CNN
	1    4000 2400
	1    0    0    -1  
$EndComp
$Comp
L R-RESCUE-card_reader R28
U 1 1 55B3AC21
P 4500 2400
F 0 "R28" V 4580 2400 40  0000 C CNN
F 1 "R" V 4507 2401 40  0000 C CNN
F 2 "~" V 4430 2400 30  0000 C CNN
F 3 "~" H 4500 2400 30  0000 C CNN
	1    4500 2400
	1    0    0    -1  
$EndComp
$Comp
L R-RESCUE-card_reader R29
U 1 1 55B3AC27
P 5000 2400
F 0 "R29" V 5080 2400 40  0000 C CNN
F 1 "R" V 5007 2401 40  0000 C CNN
F 2 "~" V 4930 2400 30  0000 C CNN
F 3 "~" H 5000 2400 30  0000 C CNN
	1    5000 2400
	1    0    0    -1  
$EndComp
$Comp
L R-RESCUE-card_reader R30
U 1 1 55B3AC2D
P 5500 2400
F 0 "R30" V 5580 2400 40  0000 C CNN
F 1 "R" V 5507 2401 40  0000 C CNN
F 2 "~" V 5430 2400 30  0000 C CNN
F 3 "~" H 5500 2400 30  0000 C CNN
	1    5500 2400
	1    0    0    -1  
$EndComp
$Comp
L R-RESCUE-card_reader R31
U 1 1 55B3AC33
P 6000 2400
F 0 "R31" V 6080 2400 40  0000 C CNN
F 1 "R" V 6007 2401 40  0000 C CNN
F 2 "~" V 5930 2400 30  0000 C CNN
F 3 "~" H 6000 2400 30  0000 C CNN
	1    6000 2400
	1    0    0    -1  
$EndComp
$Comp
L R-RESCUE-card_reader R32
U 1 1 55B3AC39
P 6500 2400
F 0 "R32" V 6580 2400 40  0000 C CNN
F 1 "R" V 6507 2401 40  0000 C CNN
F 2 "~" V 6430 2400 30  0000 C CNN
F 3 "~" H 6500 2400 30  0000 C CNN
	1    6500 2400
	1    0    0    -1  
$EndComp
$Comp
L GND-RESCUE-card_reader #PWR020
U 1 1 55B3AC3F
P 3000 2800
F 0 "#PWR020" H 3000 2800 30  0001 C CNN
F 1 "GND" H 3000 2730 30  0001 C CNN
F 2 "" H 3000 2800 60  0000 C CNN
F 3 "" H 3000 2800 60  0000 C CNN
	1    3000 2800
	1    0    0    -1  
$EndComp
$Comp
L GND-RESCUE-card_reader #PWR021
U 1 1 55B3AC45
P 3500 2800
F 0 "#PWR021" H 3500 2800 30  0001 C CNN
F 1 "GND" H 3500 2730 30  0001 C CNN
F 2 "" H 3500 2800 60  0000 C CNN
F 3 "" H 3500 2800 60  0000 C CNN
	1    3500 2800
	1    0    0    -1  
$EndComp
$Comp
L GND-RESCUE-card_reader #PWR022
U 1 1 55B3AC4B
P 4000 2800
F 0 "#PWR022" H 4000 2800 30  0001 C CNN
F 1 "GND" H 4000 2730 30  0001 C CNN
F 2 "" H 4000 2800 60  0000 C CNN
F 3 "" H 4000 2800 60  0000 C CNN
	1    4000 2800
	1    0    0    -1  
$EndComp
$Comp
L GND-RESCUE-card_reader #PWR023
U 1 1 55B3AC51
P 4500 2800
F 0 "#PWR023" H 4500 2800 30  0001 C CNN
F 1 "GND" H 4500 2730 30  0001 C CNN
F 2 "" H 4500 2800 60  0000 C CNN
F 3 "" H 4500 2800 60  0000 C CNN
	1    4500 2800
	1    0    0    -1  
$EndComp
$Comp
L GND-RESCUE-card_reader #PWR024
U 1 1 55B3AC57
P 5000 2800
F 0 "#PWR024" H 5000 2800 30  0001 C CNN
F 1 "GND" H 5000 2730 30  0001 C CNN
F 2 "" H 5000 2800 60  0000 C CNN
F 3 "" H 5000 2800 60  0000 C CNN
	1    5000 2800
	1    0    0    -1  
$EndComp
$Comp
L GND-RESCUE-card_reader #PWR025
U 1 1 55B3AC5D
P 5500 2800
F 0 "#PWR025" H 5500 2800 30  0001 C CNN
F 1 "GND" H 5500 2730 30  0001 C CNN
F 2 "" H 5500 2800 60  0000 C CNN
F 3 "" H 5500 2800 60  0000 C CNN
	1    5500 2800
	1    0    0    -1  
$EndComp
$Comp
L GND-RESCUE-card_reader #PWR026
U 1 1 55B3AC63
P 6000 2800
F 0 "#PWR026" H 6000 2800 30  0001 C CNN
F 1 "GND" H 6000 2730 30  0001 C CNN
F 2 "" H 6000 2800 60  0000 C CNN
F 3 "" H 6000 2800 60  0000 C CNN
	1    6000 2800
	1    0    0    -1  
$EndComp
$Comp
L GND-RESCUE-card_reader #PWR027
U 1 1 55B3AC69
P 6500 2800
F 0 "#PWR027" H 6500 2800 30  0001 C CNN
F 1 "GND" H 6500 2730 30  0001 C CNN
F 2 "" H 6500 2800 60  0000 C CNN
F 3 "" H 6500 2800 60  0000 C CNN
	1    6500 2800
	1    0    0    -1  
$EndComp
$Comp
L GND-RESCUE-card_reader #PWR029
U 1 1 55B3AC75
P 3850 4850
F 0 "#PWR029" H 3850 4850 30  0001 C CNN
F 1 "GND" H 3850 4780 30  0001 C CNN
F 2 "" H 3850 4850 60  0000 C CNN
F 3 "" H 3850 4850 60  0000 C CNN
	1    3850 4850
	1    0    0    -1  
$EndComp
$Comp
L GND-RESCUE-card_reader #PWR030
U 1 1 55B3AC7B
P 5650 5000
F 0 "#PWR030" H 5650 5000 30  0001 C CNN
F 1 "GND" H 5650 4930 30  0001 C CNN
F 2 "" H 5650 5000 60  0000 C CNN
F 3 "" H 5650 5000 60  0000 C CNN
	1    5650 5000
	1    0    0    -1  
$EndComp
$Comp
L 4051mod U6
U 1 1 55B3AC81
P 4950 4400
AR Path="/55B3AC81" Ref="U6"  Part="1" 
AR Path="/55B39CF3/55B3AC81" Ref="U6"  Part="1" 
F 0 "U6" H 5050 4400 60  0000 C CNN
F 1 "4051MOD" H 5050 4200 60  0000 C CNN
F 2 "~" H 4950 4400 60  0000 C CNN
F 3 "~" H 4950 4400 60  0000 C CNN
	1    4950 4400
	1    0    0    -1  
$EndComp
$Comp
L LDR-5MM RR9
U 1 1 55B3AC8D
P 7000 1750
F 0 "RR9" H 7000 1950 60  0000 C CNN
F 1 "LDR-5MM" H 7000 1600 60  0000 C CNN
F 2 "~" H 7000 1750 60  0000 C CNN
F 3 "~" H 7000 1750 60  0000 C CNN
	1    7000 1750
	0    -1   -1   0   
$EndComp
$Comp
L LDR-5MM RR10
U 1 1 55B3AC93
P 7500 1750
F 0 "RR10" H 7500 1950 60  0000 C CNN
F 1 "LDR-5MM" H 7500 1600 60  0000 C CNN
F 2 "~" H 7500 1750 60  0000 C CNN
F 3 "~" H 7500 1750 60  0000 C CNN
	1    7500 1750
	0    -1   -1   0   
$EndComp
$Comp
L LDR-5MM RR11
U 1 1 55B3AC99
P 8000 1750
F 0 "RR11" H 8000 1950 60  0000 C CNN
F 1 "LDR-5MM" H 8000 1600 60  0000 C CNN
F 2 "~" H 8000 1750 60  0000 C CNN
F 3 "~" H 8000 1750 60  0000 C CNN
	1    8000 1750
	0    -1   -1   0   
$EndComp
$Comp
L LDR-5MM RR12
U 1 1 55B3AC9F
P 8500 1750
F 0 "RR12" H 8500 1950 60  0000 C CNN
F 1 "LDR-5MM" H 8500 1600 60  0000 C CNN
F 2 "~" H 8500 1750 60  0000 C CNN
F 3 "~" H 8500 1750 60  0000 C CNN
	1    8500 1750
	0    -1   -1   0   
$EndComp
$Comp
L R-RESCUE-card_reader R33
U 1 1 55B3ACA5
P 7000 2400
F 0 "R33" V 7080 2400 40  0000 C CNN
F 1 "R" V 7007 2401 40  0000 C CNN
F 2 "~" V 6930 2400 30  0000 C CNN
F 3 "~" H 7000 2400 30  0000 C CNN
	1    7000 2400
	1    0    0    -1  
$EndComp
$Comp
L R-RESCUE-card_reader R34
U 1 1 55B3ACAB
P 7500 2400
F 0 "R34" V 7580 2400 40  0000 C CNN
F 1 "R" V 7507 2401 40  0000 C CNN
F 2 "~" V 7430 2400 30  0000 C CNN
F 3 "~" H 7500 2400 30  0000 C CNN
	1    7500 2400
	1    0    0    -1  
$EndComp
$Comp
L R-RESCUE-card_reader R35
U 1 1 55B3ACB1
P 8000 2400
F 0 "R35" V 8080 2400 40  0000 C CNN
F 1 "R" V 8007 2401 40  0000 C CNN
F 2 "~" V 7930 2400 30  0000 C CNN
F 3 "~" H 8000 2400 30  0000 C CNN
	1    8000 2400
	1    0    0    -1  
$EndComp
$Comp
L R-RESCUE-card_reader R36
U 1 1 55B3ACB7
P 8500 2400
F 0 "R36" V 8580 2400 40  0000 C CNN
F 1 "R" V 8507 2401 40  0000 C CNN
F 2 "~" V 8430 2400 30  0000 C CNN
F 3 "~" H 8500 2400 30  0000 C CNN
	1    8500 2400
	1    0    0    -1  
$EndComp
$Comp
L GND-RESCUE-card_reader #PWR032
U 1 1 55B3ACBD
P 7000 2800
F 0 "#PWR032" H 7000 2800 30  0001 C CNN
F 1 "GND" H 7000 2730 30  0001 C CNN
F 2 "" H 7000 2800 60  0000 C CNN
F 3 "" H 7000 2800 60  0000 C CNN
	1    7000 2800
	1    0    0    -1  
$EndComp
$Comp
L GND-RESCUE-card_reader #PWR033
U 1 1 55B3ACC3
P 7500 2800
F 0 "#PWR033" H 7500 2800 30  0001 C CNN
F 1 "GND" H 7500 2730 30  0001 C CNN
F 2 "" H 7500 2800 60  0000 C CNN
F 3 "" H 7500 2800 60  0000 C CNN
	1    7500 2800
	1    0    0    -1  
$EndComp
$Comp
L GND-RESCUE-card_reader #PWR034
U 1 1 55B3ACC9
P 8000 2800
F 0 "#PWR034" H 8000 2800 30  0001 C CNN
F 1 "GND" H 8000 2730 30  0001 C CNN
F 2 "" H 8000 2800 60  0000 C CNN
F 3 "" H 8000 2800 60  0000 C CNN
	1    8000 2800
	1    0    0    -1  
$EndComp
$Comp
L GND-RESCUE-card_reader #PWR035
U 1 1 55B3ACCF
P 8500 2800
F 0 "#PWR035" H 8500 2800 30  0001 C CNN
F 1 "GND" H 8500 2730 30  0001 C CNN
F 2 "" H 8500 2800 60  0000 C CNN
F 3 "" H 8500 2800 60  0000 C CNN
	1    8500 2800
	1    0    0    -1  
$EndComp
Wire Wire Line
	3000 2650 3000 2800
Wire Wire Line
	3500 2650 3500 2800
Wire Wire Line
	4000 2650 4000 2800
Wire Wire Line
	4500 2650 4500 2800
Wire Wire Line
	5000 2650 5000 2800
Wire Wire Line
	5500 2650 5500 2800
Wire Wire Line
	6000 2650 6000 2800
Wire Wire Line
	6500 2650 6500 2800
Wire Wire Line
	4250 4700 3850 4700
Wire Wire Line
	3850 4700 3850 4850
Wire Wire Line
	3000 2150 3250 2150
Wire Wire Line
	3250 2150 3250 3800
Wire Wire Line
	3250 3800 4250 3800
Wire Wire Line
	3500 2150 3700 2150
Wire Wire Line
	3700 2150 3700 3900
Wire Wire Line
	3700 3900 4250 3900
Wire Wire Line
	4000 2150 4150 2150
Wire Wire Line
	4150 2150 4150 4000
Wire Wire Line
	4150 4000 4250 4000
Wire Wire Line
	4500 2150 4350 2150
Wire Wire Line
	4350 2150 4350 3600
Wire Wire Line
	4350 3600 4050 3600
Wire Wire Line
	4050 3600 4050 4100
Wire Wire Line
	4050 4100 4250 4100
Wire Wire Line
	5000 2150 4800 2150
Wire Wire Line
	4800 2150 4800 3500
Wire Wire Line
	4800 3500 3950 3500
Wire Wire Line
	3950 3500 3950 4200
Wire Wire Line
	3950 4200 4250 4200
Wire Wire Line
	5500 2150 5250 2150
Wire Wire Line
	5250 2150 5250 3400
Wire Wire Line
	5250 3400 3850 3400
Wire Wire Line
	3850 3400 3850 4300
Wire Wire Line
	3850 4300 4250 4300
Wire Wire Line
	6000 2150 5850 2150
Wire Wire Line
	5850 2150 5850 3300
Wire Wire Line
	5850 3300 3600 3300
Wire Wire Line
	3600 3300 3600 4400
Wire Wire Line
	3600 4400 4250 4400
Wire Wire Line
	6500 2150 6350 2150
Wire Wire Line
	6350 2150 6350 3200
Wire Wire Line
	6350 3200 3500 3200
Wire Wire Line
	3500 3200 3500 4500
Wire Wire Line
	3500 4500 4250 4500
Wire Wire Line
	4250 5000 4250 5150
Wire Wire Line
	4250 4900 4150 4900
Wire Wire Line
	4150 4900 4150 5250
Wire Wire Line
	4250 4800 4050 4800
Wire Wire Line
	4050 4800 4050 5400
Wire Wire Line
	5650 4750 5650 5000
Wire Wire Line
	4950 3650 4950 3750
Wire Wire Line
	7000 2650 7000 2800
Wire Wire Line
	7500 2650 7500 2800
Wire Wire Line
	8000 2650 8000 2800
Wire Wire Line
	8500 2650 8500 2800
Wire Notes Line
	8900 3050 2750 3050
Wire Notes Line
	2750 3050 2750 1100
Wire Notes Line
	2750 1100 8900 1100
Wire Notes Line
	8900 1100 8900 3050
$Comp
L 4051mod U7
U 1 1 55B3AD10
P 7150 4400
AR Path="/55B3AD10" Ref="U7"  Part="1" 
AR Path="/55B39CF3/55B3AD10" Ref="U7"  Part="1" 
F 0 "U7" H 7250 4400 60  0000 C CNN
F 1 "4051MOD" H 7250 4200 60  0000 C CNN
F 2 "~" H 7150 4400 60  0000 C CNN
F 3 "~" H 7150 4400 60  0000 C CNN
	1    7150 4400
	1    0    0    -1  
$EndComp
$Comp
L GND-RESCUE-card_reader #PWR037
U 1 1 55B3AD1D
P 7850 5000
F 0 "#PWR037" H 7850 5000 30  0001 C CNN
F 1 "GND" H 7850 4930 30  0001 C CNN
F 2 "" H 7850 5000 60  0000 C CNN
F 3 "" H 7850 5000 60  0000 C CNN
	1    7850 5000
	1    0    0    -1  
$EndComp
Wire Wire Line
	7850 4750 7850 5000
Wire Wire Line
	7150 5050 7150 4750
Wire Wire Line
	7150 4750 7850 4750
Connection ~ 7850 4900
Wire Wire Line
	4050 5400 5850 5400
Wire Wire Line
	5850 4800 5850 5550
Wire Wire Line
	4150 5250 5950 5250
Wire Wire Line
	5950 4900 5950 5550
Wire Wire Line
	4250 5150 6050 5150
Wire Wire Line
	6050 5000 6050 5550
Wire Wire Line
	6450 4800 5850 4800
Connection ~ 5850 5400
Wire Wire Line
	6450 4900 5950 4900
Connection ~ 5950 5250
Wire Wire Line
	6450 5000 6050 5000
Connection ~ 6050 5150
Wire Wire Line
	7850 3800 8000 3800
Wire Wire Line
	8000 3800 8000 5250
Wire Wire Line
	8000 5250 6250 5250
Wire Wire Line
	6250 5250 6250 5550
Wire Wire Line
	5650 3800 5850 3800
Wire Wire Line
	5850 3800 5850 4650
Wire Wire Line
	5850 4650 6150 4650
Wire Wire Line
	6150 4650 6150 5550
Wire Wire Line
	7000 2150 6900 2150
Wire Wire Line
	6900 2150 6900 3700
Wire Wire Line
	6900 3700 6350 3700
Wire Wire Line
	6350 3700 6350 3800
Wire Wire Line
	6350 3800 6450 3800
Wire Wire Line
	7500 2150 7400 2150
Wire Wire Line
	7400 2150 7400 3650
Wire Wire Line
	7400 3650 6300 3650
Wire Wire Line
	6300 3650 6300 3900
Wire Wire Line
	6300 3900 6450 3900
Wire Wire Line
	8000 2150 7850 2150
Wire Wire Line
	7850 2150 7850 3500
Wire Wire Line
	7850 3500 6200 3500
Wire Wire Line
	6200 3500 6200 4000
Wire Wire Line
	6200 4000 6450 4000
Wire Wire Line
	8500 2150 8300 2150
Wire Wire Line
	8300 2150 8300 3400
Wire Wire Line
	8300 3400 6100 3400
Wire Wire Line
	6100 3400 6100 4100
Wire Wire Line
	6100 4100 6450 4100
NoConn ~ 6450 4300
NoConn ~ 6450 4400
NoConn ~ 6450 4500
$Comp
L GND-RESCUE-card_reader #PWR038
U 1 1 55B3AD58
P 6300 4700
F 0 "#PWR038" H 6300 4700 30  0001 C CNN
F 1 "GND" H 6300 4630 30  0001 C CNN
F 2 "" H 6300 4700 60  0000 C CNN
F 3 "" H 6300 4700 60  0000 C CNN
	1    6300 4700
	1    0    0    -1  
$EndComp
Wire Wire Line
	6300 4700 6300 4600
Wire Wire Line
	6300 4600 6450 4600
Wire Wire Line
	6450 4600 6450 4700
Wire Wire Line
	4950 5050 4950 4750
Wire Wire Line
	4950 4750 5650 4750
Connection ~ 5650 4900
NoConn ~ 6450 4200
Wire Wire Line
	3000 1250 3000 1350
Wire Wire Line
	3000 1350 8500 1350
Connection ~ 3500 1350
Connection ~ 4000 1350
Connection ~ 4500 1350
Connection ~ 5000 1350
Connection ~ 5500 1350
Connection ~ 6000 1350
Connection ~ 6500 1350
Connection ~ 7000 1350
Connection ~ 7500 1350
Connection ~ 8000 1350
Text HLabel 5850 5550 3    60   Input ~ 0
X0
Text HLabel 5950 5550 3    60   Input ~ 0
X1
Text HLabel 6050 5550 3    60   Input ~ 0
X2
Text HLabel 6150 5550 3    60   Output ~ 0
Y0
Text HLabel 6250 5550 3    60   Output ~ 0
Y1
$Comp
L +5V #PWR?
U 1 1 57768113
P 3000 1250
F 0 "#PWR?" H 3000 1100 50  0001 C CNN
F 1 "+5V" H 3000 1390 50  0000 C CNN
F 2 "" H 3000 1250 50  0000 C CNN
F 3 "" H 3000 1250 50  0000 C CNN
	1    3000 1250
	1    0    0    -1  
$EndComp
$Comp
L +5V #PWR?
U 1 1 5776827B
P 7150 3625
F 0 "#PWR?" H 7150 3475 50  0001 C CNN
F 1 "+5V" H 7150 3765 50  0000 C CNN
F 2 "" H 7150 3625 50  0000 C CNN
F 3 "" H 7150 3625 50  0000 C CNN
	1    7150 3625
	1    0    0    -1  
$EndComp
$Comp
L +5V #PWR?
U 1 1 577682C3
P 4950 3650
F 0 "#PWR?" H 4950 3500 50  0001 C CNN
F 1 "+5V" H 4950 3790 50  0000 C CNN
F 2 "" H 4950 3650 50  0000 C CNN
F 3 "" H 4950 3650 50  0000 C CNN
	1    4950 3650
	1    0    0    -1  
$EndComp
Wire Wire Line
	7150 3625 7150 3750
$EndSCHEMATC
