PCBNEW-LibModule-V1  Čet 06 Kol 2015 19:06:36
# encoding utf-8
Units mm
$INDEX
header2
header6
$EndINDEX
$MODULE header2
Po 0 0 0 15 55C39417 00000000 ~~
Li header2
Cd Connecteurs 2 pins
Kw CONN DEV
Sc 0
AR /55B38484/55B38EAC
Op 0 0 0
T0 0 -2.54 1.72974 1.08712 0 0.3048 N V 21 N "P5"
T1 0 -2.54 1.524 1.016 0 0.3048 N I 21 N "CONN_LED_IN"
DS -2.54 1.27 -2.54 -1.27 0.3048 21
DS -2.54 -1.27 2.54 -1.27 0.3048 21
DS 2.54 -1.27 2.54 1.27 0.3048 21
DS 2.54 1.27 -2.54 1.27 0.3048 21
$PAD
Sh "1" R 2 2 0 0 0
Dr 1 0 0
At STD N 00E0FFFF
Ne 1 "/ui/led_pwr_3.3"
Po -1.27 0
$EndPAD
$PAD
Sh "2" C 2 2 0 0 0
Dr 1 0 0
At STD N 00E0FFFF
Ne 2 "/ui/led_pwr_gnd"
Po 1.27 0
$EndPAD
$EndMODULE header2
$MODULE header6
Po 0 0 0 15 00200000 00000000 ~~
Li header6
Cd Connecteur 6 pins
Kw CONN DEV
Sc 0
AR /55B3DAF5
Op 0 0 0
T0 0 -2.54 1.72974 1.08712 0 0.3048 N V 21 N "P1"
T1 0 -2.54 1.524 1.016 0 0.3048 N I 21 N "CONN_UI_OUT"
DS -7.62 1.27 -7.62 -1.27 0.3048 21
DS -7.62 -1.27 7.62 -1.27 0.3048 21
DS 7.62 -1.27 7.62 1.27 0.3048 21
DS 7.62 1.27 -7.62 1.27 0.3048 21
DS -5.08 1.27 -5.08 -1.27 0.3048 21
$PAD
Sh "1" R 2 2 0 0 0
Dr 1 0 0
At STD N 00E0FFFF
Ne 1 "+3.3V"
Po -6.35 0
$EndPAD
$PAD
Sh "2" C 2 2 0 0 0
Dr 1 0 0
At STD N 00E0FFFF
Ne 2 "GND"
Po -3.81 0
$EndPAD
$PAD
Sh "3" C 2 2 0 0 0
Dr 1 0 0
At STD N 00E0FFFF
Ne 0 ""
Po -1.27 0
$EndPAD
$PAD
Sh "4" C 2 2 0 0 0
Dr 1 0 0
At STD N 00E0FFFF
Ne 3 "N-0000027"
Po 1.27 0
$EndPAD
$PAD
Sh "5" C 2 2 0 0 0
Dr 1 0 0
At STD N 00E0FFFF
Ne 4 "N-0000028"
Po 3.81 0
$EndPAD
$PAD
Sh "6" C 2 2 0 0 0
Dr 1 0 0
At STD N 00E0FFFF
Ne 5 "N-0000029"
Po 6.35 0
$EndPAD
$EndMODULE header6
$EndLIBRARY
