PCBNEW-LibModule-V1  Čet 06 Kol 2015 18:55:06
# encoding utf-8
Units mm
$INDEX
LDR5mm
$EndINDEX
$MODULE LDR5mm
Po 0 0 0 15 55C39156 00000000 ~~
Li LDR5mm
Cd Condensateur e = 1 pas
Kw C
Sc 0
AR /55B39CF3/55B3ABDF
Op 0 0 0
T0 0 3 1.016 1.016 0 0.2032 N V 21 N "RR1"
T1 0 -2.286 1.016 1.016 0 0.2032 N I 21 N "LDR-5MM"
DS -1 -1.5 1 -1.5 0.15 21
DS 1 -1.5 1 -0.5 0.15 21
DS 1 -0.5 -1 -0.5 0.15 21
DS -1 -0.5 -1 0.5 0.15 21
DS -1 0.5 1 0.5 0.15 21
DS 1 0.5 1 1.5 0.15 21
DS 1 1.5 -1 1.5 0.15 21
DC 0 0 2.5 0 0.15 21
$PAD
Sh "1" C 2.5 2.5 0 0 0
Dr 1 0 0
At STD N 00E0FFFF
Ne 2 "N-00000122"
Po -1.8 0
$EndPAD
$PAD
Sh "2" C 2.5 2.5 0 0 0
Dr 1 0 0
At STD N 00E0FFFF
Ne 1 "+3.3V"
Po 1.8 0
$EndPAD
$SHAPE3D
Na "discret/capa_1_pas.wrl"
Sc 1 1 1
Of 0 0 0
Ro 0 0 0
$EndSHAPE3D
$EndMODULE LDR5mm
$EndLIBRARY
