PCBNEW-LibModule-V1  Čet 06 Kol 2015 19:10:31
# encoding utf-8
Units mm
$INDEX
LED-5MM-BIGPADS
$EndINDEX
$MODULE LED-5MM-BIGPADS
Po 0 0 0 15 55C394E5 00000000 ~~
Li LED-5MM-BIGPADS
Cd LED 5mm - Lead pitch 100mil (2,54mm)
Kw LED led 5mm 5MM 100mil 2,54mm
Sc 0
AR /55B38484/55B38AE3
Op 0 0 0
T0 0 -3.81 0.762 0.762 0 0.0889 N V 21 N "D8"
T1 0 3.81 0.762 0.762 0 0.0889 N V 21 N "LED"
DS 2.8448 1.905 2.8448 -1.905 0.2032 21
DC 0.254 0 -1.016 1.27 0.0762 21
DA 0.254 0 2.794 1.905 2862 0.254 21
DA 0.254 0 -0.889 0 900 0.1524 21
DA 0.254 0 1.397 0 900 0.1524 21
DA 0.254 0 -1.397 0 900 0.1524 21
DA 0.254 0 1.905 0 900 0.1524 21
DA 0.254 0 -1.905 0 900 0.1524 21
DA 0.254 0 2.413 0 900 0.1524 21
$PAD
Sh "1" R 2 3 0 0 0
Dr 1 0 0
At STD N 00E0FFFF
Ne 2 "N-0000087"
Po -1.27 0
$EndPAD
$PAD
Sh "2" R 2 3 0 0 0
Dr 1 0 0
At STD N 00E0FFFF
Ne 1 "N-0000080"
Po 1.27 0
$EndPAD
$SHAPE3D
Na "discret/leds/led5_vertical_verde.wrl"
Sc 1 1 1
Of 0 0 0
Ro 0 0 0
$EndSHAPE3D
$EndMODULE LED-5MM-BIGPADS
$EndLIBRARY
